hyperram.vcd
$comment Generated by Amaranth $end
$date 2025-08-05 19:37:05.813954 $end
$timescale 1 fs $end
$scope module bench $end
$scope module top $end
$var wire 1 ! clk $end
$var wire 1 " rst $end
$scope module hram $end
$var wire 1 ! clk $end
$var wire 1 " rst $end
$var wire 3 # bus__addr $end
$var wire 3 $ ctrl_bus__addr $end
$var wire 8 % ctrl_bus__r_data $end
$var wire 8 & bus__r_data $end
$var wire 1 ' bus__r_stb $end
$var wire 1 ( ctrl_bus__r_stb $end
$var wire 8 ) bus__w_data $end
$var wire 8 * ctrl_bus__w_data $end
$var wire 1 + bus__w_stb $end
$var wire 1 , ctrl_bus__w_stb $end
$var wire 1 - neg_clk $end
$var wire 1 . neg_rst $end
$var wire 1 / pins__clk__o $end
$var wire 1 0 clk$15 $end
$var wire 1 1 pins__csn__o $end
$var wire 1 2 csn $end
$var wire 1 3 pins__rstn__o $end
$var wire 8 4 pins__dq__o $end
$var wire 48 5 sr $end
$var wire 32 6 data_bus__dat_r $end
$var string 1 7 fsm_state $end
$var wire 8 8 counter $end
$var wire 8 9 pins__dq__i $end
$var wire 1 : pins__rwds__oe $end
$var wire 1 ; data_bus__stb $end
$var wire 1 < data_bus__cyc $end
$var wire 21 = data_bus__adr $end
$var wire 1 > pins__dq__oe $end
$var wire 1 ? data_bus__we $end
$var wire 21 @ latched_adr $end
$var wire 1 A latched_we $end
$var wire 1 B is_ctrl_write $end
$var wire 1 C w_stb $end
$var wire 32 D w_data $end
$var wire 16 E latched_cfg $end
$var wire 1 F x2_lat $end
$var wire 1 G pins__rwds__i $end
$var wire 4 H data $end
$var wire 32 I data_bus__dat_w $end
$var wire 1 J pins__rwds__o $end
$var wire 4 K data_bus__sel $end
$var wire 1 L data_bus__ack $end
$var wire 4 M wait_count $end
$scope module bridge $end
$var wire 1 ! clk $end
$var wire 1 " rst $end
$var wire 3 # bus__addr$1 $end
$var wire 8 & bus__r_data $end
$var wire 1 ' bus__r_stb$5 $end
$var wire 8 ) bus__w_data$7 $end
$var wire 1 + bus__w_stb$9 $end
$var wire 1 C w_stb $end
$var wire 32 D w_data $end
$var wire 4 H data $end
$var wire 3 N bus__addr $end
$var wire 8 O bus__r_data$3 $end
$var wire 1 P bus__r_stb $end
$var wire 8 Q bus__w_data $end
$var wire 1 R bus__w_stb $end
$var wire 4 S element__r_data $end
$var wire 1 T element__r_stb $end
$var wire 4 U element__w_data $end
$var wire 1 V element__w_stb $end
$var wire 32 W element__w_data$17 $end
$var wire 1 X element__w_stb$18 $end
$scope module ctrl_cfg $end
$var wire 1 ! clk $end
$var wire 1 " rst $end
$var wire 4 H data $end
$var wire 4 S element__r_data $end
$var wire 1 T element__r_stb $end
$var wire 4 U element__w_data $end
$var wire 1 V element__w_stb $end
$var wire 4 d port__r_data $end
$var wire 1 e port__r_stb $end
$var wire 4 f port__w_data $end
$var wire 1 g port__w_stb $end
$scope module latency $end
$var wire 1 ! clk $end
$var wire 1 " rst $end
$var wire 4 H data $end
$var wire 4 d port__r_data $end
$var wire 4 f port__w_data $end
$var wire 1 g port__w_stb $end
$var wire 4 h _storage $end
$upscope $end
$upscope $end
$scope module hram_cfg $end
$var wire 1 C w_stb $end
$var wire 32 D w_data $end
$var wire 32 W element__w_data $end
$var wire 1 X element__w_stb $end
$var wire 32 i port__w_data $end
$var wire 1 j port__w_stb $end
$scope module val $end
$var wire 1 C w_stb $end
$var wire 32 D w_data $end
$var wire 32 i port__w_data $end
$var wire 1 j port__w_stb $end
$upscope $end
$upscope $end
$scope module mux $end
$var wire 1 ! clk $end
$var wire 1 " rst $end
$var wire 3 N bus__addr $end
$var wire 8 O bus__r_data $end
$var wire 1 P bus__r_stb $end
$var wire 8 Q bus__w_data $end
$var wire 1 R bus__w_stb $end
$var wire 4 S element__r_data $end
$var wire 1 T element__r_stb $end
$var wire 4 U element__w_data $end
$var wire 1 V element__w_stb $end
$var wire 32 W element__w_data$23 $end
$var wire 1 X element__w_stb$18 $end
$var wire 1 Y r_shadow__0__r_en $end
$var wire 1 Z r_shadow__0__w_en $end
$var wire 8 [ r_shadow__0__data $end
$var wire 1 \ w_shadow__0__w_en $end
$var wire 8 ] w_shadow__0__data $end
$var wire 1 ^ w_shadow__1__w_en $end
$var wire 8 _ w_shadow__1__data $end
$var wire 1 ` w_shadow__2__w_en $end
$var wire 8 a w_shadow__2__data $end
$var wire 1 b w_shadow__3__w_en $end
$var wire 8 c w_shadow__3__data $end
$upscope $end
$upscope $end
$upscope $end
$upscope $end
$upscope $end
$enddefinitions $end
#0
$dumpvars
0!
0"
b0 #
b0 $
b0 %
b0 &
0'
0(
b0 )
b0 *
0+
0,
0-
0.
0/
00
01
02
13
b0 4
b0 5
b0 6
sIDLE/0 7
b0 8
b0 9
0:
0;
0<
b0 =
0>
0?
b0 @
0A
0B
0C
b0 D
b0 E
0F
0G
b111 H
b0 I
0J
b0 K
0L
b0 M
b0 N
b0 O
0P
b0 Q
0R
b111 S
0T
b0 U
0V
b0 W
0X
0Y
0Z
b0 [
0\
b0 ]
0^
b0 _
0`
b0 a
0b
b0 c
b111 d
0e
b0 f
0g
b111 h
b0 i
0j
$end
#500000000
1!
b1 K
1?
12
1<
1-
b110100101101001011010 =
b11110000111100001111000011110000 I
1;
11
#1000000000
0!
0-
#1500000000
1!
b1000000000011010010110100101100000000000000100 5
b110100101101001011010 @
sWAIT_CA/1 7
1>
02
1-
b110 8
1A
b10010110100101100000000000000100 6
01
b100000 4
#2000000000
0!
0-
10
1/
#2500000000
1!
1-
b101 8
b1101001011010010110000000000000010000000000 5
b10010110000000000000010000000000 6
b110 4
#3000000000
0!
0-
00
0/
#3500000000
1!
1-
b100 8
b100101101001011000000000000001000000000000000000 5
b1000000000000000000 6
b10010110 4
#4000000000
0!
0-
10
1/
#4500000000
1!
1-
b11 8
b100101100000000000000100000000000000000000000000 5
b100000000000000000000000000 6
#5000000000
0!
0-
00
0/
#5500000000
1!
1-
b10 8
b10000000000000000000000000000000000 5
b0 6
b0 4
#6000000000
0!
0-
10
1/
#6500000000
1!
1-
b1 8
b1000000000000000000000000000000000000000000 5
b100 4
#7000000000
0!
0-
00
0/
#7500000000
1!
1-
b1100 8
b0 5
sWAIT_LAT/3 7
b0 4
#8000000000
0!
0-
10
1/
#8500000000
1!
1-
b1011 8
0>
#9000000000
0!
0-
00
0/
#9500000000
1!
1-
b1010 8
#10000000000
0!
0-
10
1/
#10500000000
1!
1-
b1001 8
#11000000000
0!
0-
00
0/
#11500000000
1!
1-
b1000 8
#12000000000
0!
0-
10
1/
#12500000000
1!
1-
b111 8
#13000000000
0!
0-
00
0/
#13500000000
1!
1-
b110 8
#14000000000
0!
0-
10
1/
#14500000000
1!
1-
b101 8
#15000000000
0!
0-
00
0/
#15500000000
1!
1-
b100 8
#16000000000
0!
0-
10
1/
#16500000000
1!
1-
b11 8
#17000000000
0!
0-
00
0/
#17500000000
1!
1-
b10 8
#18000000000
0!
0-
10
1/
#18500000000
1!
1-
b1 8
#19000000000
0!
0-
00
0/
#19500000000
1!
1J
b111100001111000011110000111100000000000000000000 5
1>
sSHIFT_DAT/4 7
1:
1-
b100 8
b11110000111100000000000000000000 6
b11110000 4
#20000000000
0!
0-
10
1/
#20500000000
1!
1-
b11 8
b111100001111000011110000000000000000000000000000 5
b11110000000000000000000000000000 6
#21000000000
0!
0-
00
0/
#21500000000
1!
1-
b10 8
b111100001111000000000000000000000000000000000000 5
b0 6
#22000000000
0!
0-
10
1/
#22500000000
1!
0J
1-
b1 8
b111100000000000000000000000000000000000000000000 5
#23000000000
0!
0-
00
0/
#23500000000
1!
1-
b0 8
b0 5
sACK_XFER/5 7
b0 4
#24000000000
0!
0-
#24500000000
1!
1L
0>
sWAIT_NEXT/6 7
b1001 M
0:
1-
#25000000000
0!
0-
#25500000000
1!
0L
b1000 M
0<
1-
0;
#26000000000
0!
0-
#26500000000
1!
b111 M
1-
#27000000000
0!
0-
#27500000000
1!
b110 M
1-
#28000000000
0!
0-
#28500000000
1!
b101 M
1-
#29000000000
0!
0-
#29500000000
1!
b100 M
1-
#30000000000
0!
0-
#30500000000
1!
b11 M
1-
#31000000000
0!
0-
#31500000000
1!
b10 M
1-
#32000000000
0!
0-
#32500000000
1!
b1 M
1-
#33000000000
0!
0-
#33500000000
1!
b0 M
1-
#34000000000
0!
0-
#34500000000
1!
12
b1111 M
1-
sIDLE/0 7
11
