smoke_test.vcd
$comment Generated by Amaranth $end
$date 2025-08-05 19:38:09.674225 $end
$timescale 1 fs $end
$scope module bench $end
$scope module top $end
$var wire 1 ! clk $end
$var wire 1 " rst $end
$var wire 1 # cov_stmt_0 $end
$var wire 2 $ bus__addr $end
$var wire 2 % bus__addr$4 $end
$var wire 1 & cov_stmt_1 $end
$var wire 8 ' bus__r_data $end
$var wire 8 ( bus__r_data$7 $end
$var wire 1 ) cov_stmt_2 $end
$var wire 1 * bus__r_stb $end
$var wire 1 + bus__r_stb$10 $end
$var wire 1 , cov_stmt_3 $end
$var wire 8 - bus__w_data $end
$var wire 8 . bus__w_data$13 $end
$var wire 1 / cov_stmt_4 $end
$var wire 1 0 bus__w_stb $end
$var wire 1 1 bus__w_stb$16 $end
$var wire 1 2 cov_stmt_5 $end
$var wire 1 3 pins__0__i $end
$var wire 4 4 pins__gpio__i $end
$var wire 1 5 cov_stmt_6 $end
$var wire 4 6 pins__gpio__o $end
$var wire 1 7 pins__0__o $end
$var wire 1 8 cov_stmt_7 $end
$var wire 4 9 pins__gpio__oe $end
$var wire 1 : pins__0__oe $end
$var wire 1 ; cov_stmt_8 $end
$var wire 1 < pins__1__i $end
$var wire 1 = cov_stmt_9 $end
$var wire 1 > pins__1__o $end
$var wire 1 ? cov_stmt_10 $end
$var wire 1 @ pins__1__oe $end
$var wire 1 A cov_stmt_11 $end
$var wire 1 B pins__2__i $end
$var wire 1 C cov_stmt_12 $end
$var wire 1 D pins__2__o $end
$var wire 1 E cov_stmt_13 $end
$var wire 1 F pins__2__oe $end
$var wire 1 G cov_stmt_14 $end
$var wire 1 H pins__3__i $end
$var wire 1 I cov_stmt_15 $end
$var wire 1 J pins__3__o $end
$var wire 1 K cov_stmt_16 $end
$var wire 1 L pins__3__oe $end
$scope module _gpio $end
$var wire 1 ! clk $end
$var wire 1 " rst $end
$var wire 2 $ bus__addr$1 $end
$var wire 8 ( bus__r_data $end
$var wire 1 * bus__r_stb$5 $end
$var wire 8 - bus__w_data$7 $end
$var wire 1 0 bus__w_stb$9 $end
$var wire 1 3 pins__0__i $end
$var wire 1 7 pins__0__o $end
$var wire 1 : pins__0__oe $end
$var wire 1 < pins__1__i $end
$var wire 1 > pins__1__o $end
$var wire 1 @ pins__1__oe $end
$var wire 1 B pins__2__i $end
$var wire 1 D pins__2__o $end
$var wire 1 F pins__2__oe $end
$var wire 1 H pins__3__i $end
$var wire 1 J pins__3__o $end
$var wire 1 L pins__3__oe $end
$var wire 2 M bus__addr $end
$var wire 8 N bus__r_data$3 $end
$var wire 1 O bus__r_stb $end
$var wire 8 P bus__w_data $end
$var wire 1 Q bus__w_stb $end
$var wire 1 R r_data $end
$var wire 1 S pin_0_i_sync_ff_1 $end
$var wire 1 T w_stb $end
$var wire 1 U w_data $end
$var wire 1 V set $end
$var wire 1 W w_stb$15 $end
$var wire 1 X w_data$16 $end
$var wire 1 Y clr $end
$var string 1 Z data $end
$var wire 1 [ data$20 $end
$var wire 4 \ alt_mode $end
$var wire 1 ] r_data$23 $end
$var wire 1 ^ pin_1_i_sync_ff_1 $end
$var wire 1 _ w_stb$25 $end
$var wire 1 ` w_data$26 $end
$var wire 1 a set$27 $end
$var wire 1 b w_stb$28 $end
$var wire 1 c w_data$29 $end
$var wire 1 d clr$30 $end
$var string 1 e data$31 $end
$var wire 1 f data$33 $end
$var wire 1 g r_data$35 $end
$var wire 1 h pin_2_i_sync_ff_1 $end
$var wire 1 i w_stb$37 $end
$var wire 1 j w_data$38 $end
$var wire 1 k set$39 $end
$var wire 1 l w_stb$40 $end
$var wire 1 m w_data$41 $end
$var wire 1 n clr$42 $end
$var string 1 o data$43 $end
$var wire 1 p data$45 $end
$var wire 1 q r_data$47 $end
$var wire 1 r pin_3_i_sync_ff_1 $end
$var wire 1 s w_stb$49 $end
$var wire 1 t w_data$50 $end
$var wire 1 u set$51 $end
$var wire 1 v w_stb$52 $end
$var wire 1 w w_data$53 $end
$var wire 1 x clr$54 $end
$var string 1 y data$55 $end
$var wire 1 z data$57 $end
$var wire 1 { pin_0_i_sync_ff_0 $end
$var wire 1 | pin_1_i_sync_ff_0 $end
$var wire 1 } pin_2_i_sync_ff_0 $end
$var wire 1 ~ pin_3_i_sync_ff_0 $end
$scope module bridge $end
$var wire 1 ! clk $end
$var wire 1 " rst $end
$var wire 2 M bus__addr$1 $end
$var wire 8 N bus__r_data $end
$var wire 1 O bus__r_stb$5 $end
$var wire 8 P bus__w_data$7 $end
$var wire 1 Q bus__w_stb$9 $end
$var wire 1 R r_data $end
$var wire 1 T w_stb $end
$var wire 1 U w_data $end
$var wire 1 V set $end
$var wire 1 W w_stb$47 $end
$var wire 1 X w_data$46 $end
$var wire 1 Y clr $end
$var string 1 Z data $end
$var wire 1 [ data$32 $end
$var wire 1 ] r_data$23 $end
$var wire 1 _ w_stb$49 $end
$var wire 1 ` w_data$48 $end
$var wire 1 a set$33 $end
$var wire 1 b w_stb$51 $end
$var wire 1 c w_data$50 $end
$var wire 1 d clr$34 $end
$var string 1 e data$17 $end
$var wire 1 f data$35 $end
$var wire 1 g r_data$24 $end
$var wire 1 i w_stb$53 $end
$var wire 1 j w_data$52 $end
$var wire 1 k set$36 $end
$var wire 1 l w_stb$55 $end
$var wire 1 m w_data$54 $end
$var wire 1 n clr$37 $end
$var string 1 o data$18 $end
$var wire 1 p data$38 $end
$var wire 1 q r_data$25 $end
$var wire 1 s w_stb$57 $end
$var wire 1 t w_data$56 $end
$var wire 1 u set$39 $end
$var wire 1 v w_stb$59 $end
$var wire 1 w w_data$58 $end
$var wire 1 x clr$40 $end
$var string 1 y data$19 $end
$var wire 1 z data$41 $end
$var wire 2 !! bus__addr $end
$var wire 8 "! bus__r_data$3 $end
$var wire 1 #! bus__r_stb $end
$var wire 8 $! bus__w_data $end
$var wire 1 %! bus__w_stb $end
$var wire 8 &! element__r_data $end
$var wire 1 '! element__r_stb $end
$var wire 8 (! element__w_data $end
$var wire 1 )! element__w_stb $end
$var wire 4 *! element__r_data$20 $end
$var wire 1 +! element__r_stb$21 $end
$var wire 4 ,! element__r_data$26 $end
$var wire 1 -! element__r_stb$27 $end
$var wire 4 .! element__w_data$28 $end
$var wire 1 /! element__w_stb$29 $end
$var wire 8 0! element__w_data$42 $end
$var wire 1 1! element__w_stb$43 $end
$scope module Input $end
$var wire 1 R r_data $end
$var wire 1 ] r_data$11 $end
$var wire 1 g r_data$12 $end
$var wire 1 q r_data$13 $end
$var wire 4 *! element__r_data $end
$var wire 1 +! element__r_stb $end
$var wire 1 K! port__r_data $end
$var wire 1 L! port__r_stb $end
$var wire 1 M! port__r_data$4 $end
$var wire 1 N! port__r_stb$5 $end
$var wire 1 O! port__r_data$6 $end
$var wire 1 P! port__r_stb$7 $end
$var wire 1 Q! port__r_data$8 $end
$var wire 1 R! port__r_stb$9 $end
$scope module pin__0 $end
$var wire 1 R r_data $end
$var wire 1 K! port__r_data $end
$var wire 1 L! port__r_stb $end
$var wire 1 S! r_stb $end
$upscope $end
$scope module pin__1 $end
$var wire 1 ] r_data $end
$var wire 1 M! port__r_data $end
$var wire 1 N! port__r_stb $end
$var wire 1 T! r_stb $end
$upscope $end
$scope module pin__2 $end
$var wire 1 g r_data $end
$var wire 1 O! port__r_data $end
$var wire 1 P! port__r_stb $end
$var wire 1 U! r_stb $end
$upscope $end
$scope module pin__3 $end
$var wire 1 q r_data $end
$var wire 1 Q! port__r_data $end
$var wire 1 R! port__r_stb $end
$var wire 1 V! r_stb $end
$upscope $end
$upscope $end
$scope module Mode $end
$var wire 1 ! clk $end
$var wire 1 " rst $end
$var string 1 Z data $end
$var string 1 e data$23 $end
$var string 1 o data$24 $end
$var string 1 y data$25 $end
$var wire 8 &! element__r_data $end
$var wire 1 '! element__r_stb $end
$var wire 8 (! element__w_data $end
$var wire 1 )! element__w_stb $end
$var wire 2 7! port__r_data $end
$var wire 1 8! port__r_stb $end
$var wire 2 9! port__w_data $end
$var wire 1 :! port__w_stb $end
$var wire 2 ;! port__r_data$8 $end
$var wire 1 <! port__r_stb$9 $end
$var wire 2 =! port__w_data$10 $end
$var wire 1 >! port__w_stb$11 $end
$var wire 2 ?! port__r_data$12 $end
$var wire 1 @! port__r_stb$13 $end
$var wire 2 A! port__w_data$14 $end
$var wire 1 B! port__w_stb$15 $end
$var wire 2 C! port__r_data$16 $end
$var wire 1 D! port__r_stb$17 $end
$var wire 2 E! port__w_data$18 $end
$var wire 1 F! port__w_stb$19 $end
$scope module pin__0 $end
$var wire 1 ! clk $end
$var wire 1 " rst $end
$var string 1 Z data $end
$var wire 2 7! port__r_data $end
$var wire 2 9! port__w_data $end
$var wire 1 :! port__w_stb $end
$var string 1 G! _storage $end
$upscope $end
$scope module pin__1 $end
$var wire 1 ! clk $end
$var wire 1 " rst $end
$var string 1 e data $end
$var wire 2 ;! port__r_data $end
$var wire 2 =! port__w_data $end
$var wire 1 >! port__w_stb $end
$var string 1 H! _storage $end
$upscope $end
$scope module pin__2 $end
$var wire 1 ! clk $end
$var wire 1 " rst $end
$var string 1 o data $end
$var wire 2 ?! port__r_data $end
$var wire 2 A! port__w_data $end
$var wire 1 B! port__w_stb $end
$var string 1 I! _storage $end
$upscope $end
$scope module pin__3 $end
$var wire 1 ! clk $end
$var wire 1 " rst $end
$var string 1 y data $end
$var wire 2 C! port__r_data $end
$var wire 2 E! port__w_data $end
$var wire 1 F! port__w_stb $end
$var string 1 J! _storage $end
$upscope $end
$upscope $end
$scope module Output $end
$var wire 1 ! clk $end
$var wire 1 " rst $end
$var wire 1 V set $end
$var wire 1 Y clr $end
$var wire 1 [ data $end
$var wire 1 a set$25 $end
$var wire 1 d clr$26 $end
$var wire 1 f data$27 $end
$var wire 1 k set$28 $end
$var wire 1 n clr$29 $end
$var wire 1 p data$30 $end
$var wire 1 u set$31 $end
$var wire 1 x clr$32 $end
$var wire 1 z data$33 $end
$var wire 4 ,! element__r_data $end
$var wire 1 -! element__r_stb $end
$var wire 4 .! element__w_data $end
$var wire 1 /! element__w_stb $end
$var wire 1 W! port__r_data $end
$var wire 1 X! port__r_stb $end
$var wire 1 Y! port__w_data $end
$var wire 1 Z! port__w_stb $end
$var wire 1 [! port__r_data$8 $end
$var wire 1 \! port__r_stb$9 $end
$var wire 1 ]! port__w_data$10 $end
$var wire 1 ^! port__w_stb$11 $end
$var wire 1 _! port__r_data$12 $end
$var wire 1 `! port__r_stb$13 $end
$var wire 1 a! port__w_data$14 $end
$var wire 1 b! port__w_stb$15 $end
$var wire 1 c! port__r_data$16 $end
$var wire 1 d! port__r_stb$17 $end
$var wire 1 e! port__w_data$18 $end
$var wire 1 f! port__w_stb$19 $end
$scope module pin__0 $end
$var wire 1 ! clk $end
$var wire 1 " rst $end
$var wire 1 V set $end
$var wire 1 Y clr $end
$var wire 1 [ data $end
$var wire 1 W! port__r_data $end
$var wire 1 Y! port__w_data $end
$var wire 1 Z! port__w_stb $end
$var wire 1 g! _storage $end
$upscope $end
$scope module pin__1 $end
$var wire 1 ! clk $end
$var wire 1 " rst $end
$var wire 1 a set $end
$var wire 1 d clr $end
$var wire 1 f data $end
$var wire 1 [! port__r_data $end
$var wire 1 ]! port__w_data $end
$var wire 1 ^! port__w_stb $end
$var wire 1 h! _storage $end
$upscope $end
$scope module pin__2 $end
$var wire 1 ! clk $end
$var wire 1 " rst $end
$var wire 1 k set $end
$var wire 1 n clr $end
$var wire 1 p data $end
$var wire 1 _! port__r_data $end
$var wire 1 a! port__w_data $end
$var wire 1 b! port__w_stb $end
$var wire 1 i! _storage $end
$upscope $end
$scope module pin__3 $end
$var wire 1 ! clk $end
$var wire 1 " rst $end
$var wire 1 u set $end
$var wire 1 x clr $end
$var wire 1 z data $end
$var wire 1 c! port__r_data $end
$var wire 1 e! port__w_data $end
$var wire 1 f! port__w_stb $end
$var wire 1 j! _storage $end
$upscope $end
$upscope $end
$scope module SetClr $end
$var wire 1 T w_stb $end
$var wire 1 U w_data $end
$var wire 1 W w_stb$21 $end
$var wire 1 X w_data$20 $end
$var wire 1 _ w_stb$23 $end
$var wire 1 ` w_data$22 $end
$var wire 1 b w_stb$25 $end
$var wire 1 c w_data$24 $end
$var wire 1 i w_stb$27 $end
$var wire 1 j w_data$26 $end
$var wire 1 l w_stb$29 $end
$var wire 1 m w_data$28 $end
$var wire 1 s w_stb$31 $end
$var wire 1 t w_data$30 $end
$var wire 1 v w_stb$33 $end
$var wire 1 w w_data$32 $end
$var wire 8 0! element__w_data $end
$var wire 1 1! element__w_stb $end
$var wire 1 k! port__w_data $end
$var wire 1 l! port__w_stb $end
$var wire 1 m! port__w_data$4 $end
$var wire 1 n! port__w_stb$5 $end
$var wire 1 o! port__w_data$6 $end
$var wire 1 p! port__w_stb$7 $end
$var wire 1 q! port__w_data$8 $end
$var wire 1 r! port__w_stb$9 $end
$var wire 1 s! port__w_data$10 $end
$var wire 1 t! port__w_stb$11 $end
$var wire 1 u! port__w_data$12 $end
$var wire 1 v! port__w_stb$13 $end
$var wire 1 w! port__w_data$14 $end
$var wire 1 x! port__w_stb$15 $end
$var wire 1 y! port__w_data$16 $end
$var wire 1 z! port__w_stb$17 $end
$scope module pin__0__clr $end
$var wire 1 W w_stb $end
$var wire 1 X w_data $end
$var wire 1 m! port__w_data $end
$var wire 1 n! port__w_stb $end
$upscope $end
$scope module pin__0__set $end
$var wire 1 T w_stb $end
$var wire 1 U w_data $end
$var wire 1 k! port__w_data $end
$var wire 1 l! port__w_stb $end
$upscope $end
$scope module pin__1__clr $end
$var wire 1 b w_stb $end
$var wire 1 c w_data $end
$var wire 1 q! port__w_data $end
$var wire 1 r! port__w_stb $end
$upscope $end
$scope module pin__1__set $end
$var wire 1 _ w_stb $end
$var wire 1 ` w_data $end
$var wire 1 o! port__w_data $end
$var wire 1 p! port__w_stb $end
$upscope $end
$scope module pin__2__clr $end
$var wire 1 l w_stb $end
$var wire 1 m w_data $end
$var wire 1 u! port__w_data $end
$var wire 1 v! port__w_stb $end
$upscope $end
$scope module pin__2__set $end
$var wire 1 i w_stb $end
$var wire 1 j w_data $end
$var wire 1 s! port__w_data $end
$var wire 1 t! port__w_stb $end
$upscope $end
$scope module pin__3__clr $end
$var wire 1 v w_stb $end
$var wire 1 w w_data $end
$var wire 1 y! port__w_data $end
$var wire 1 z! port__w_stb $end
$upscope $end
$scope module pin__3__set $end
$var wire 1 s w_stb $end
$var wire 1 t w_data $end
$var wire 1 w! port__w_data $end
$var wire 1 x! port__w_stb $end
$upscope $end
$upscope $end
$scope module mux $end
$var wire 1 ! clk $end
$var wire 1 " rst $end
$var wire 2 !! bus__addr $end
$var wire 8 "! bus__r_data $end
$var wire 1 #! bus__r_stb $end
$var wire 8 $! bus__w_data $end
$var wire 1 %! bus__w_stb $end
$var wire 8 &! element__r_data $end
$var wire 1 '! element__r_stb $end
$var wire 8 (! element__w_data $end
$var wire 1 )! element__w_stb $end
$var wire 4 *! element__r_data$10 $end
$var wire 1 +! element__r_stb$9 $end
$var wire 4 ,! element__r_data$12 $end
$var wire 1 -! element__r_stb$11 $end
$var wire 4 .! element__w_data$22 $end
$var wire 1 /! element__w_stb$14 $end
$var wire 8 0! element__w_data$23 $end
$var wire 1 1! element__w_stb$15 $end
$var wire 1 2! r_shadow__0__r_en $end
$var wire 1 3! r_shadow__0__w_en $end
$var wire 8 4! r_shadow__0__data $end
$var wire 1 5! w_shadow__0__w_en $end
$var wire 8 6! w_shadow__0__data $end
$upscope $end
$upscope $end
$upscope $end
$upscope $end
$upscope $end
$enddefinitions $end
#0
$dumpvars
0!
0"
1#
b0 $
b0 %
1&
b0 '
b0 (
1)
1*
1+
1,
b0 -
b0 .
1/
00
01
12
03
b0 4
15
b0 6
07
18
b0 9
0:
1;
0<
1=
0>
1?
0@
1A
0B
1C
0D
1E
0F
1G
0H
1I
0J
1K
0L
b0 M
b0 N
1O
b0 P
0Q
0R
0S
0T
0U
0V
0W
0X
0Y
sINPUT_ONLY Z
0[
b0 \
0]
0^
0_
0`
0a
0b
0c
0d
sINPUT_ONLY e
0f
0g
0h
0i
0j
0k
0l
0m
0n
sINPUT_ONLY o
0p
0q
0r
0s
0t
0u
0v
0w
0x
sINPUT_ONLY y
0z
0{
0|
0}
0~
b0 !!
b0 "!
1#!
b0 $!
0%!
b0 &!
1'!
b0 (!
0)!
b0 *!
0+!
b0 ,!
0-!
b0 .!
0/!
b0 0!
01!
02!
13!
b0 4!
05!
b0 6!
b0 7!
18!
b0 9!
0:!
b0 ;!
1<!
b0 =!
0>!
b0 ?!
1@!
b0 A!
0B!
b0 C!
1D!
b0 E!
0F!
sINPUT_ONLY G!
sINPUT_ONLY H!
sINPUT_ONLY I!
sINPUT_ONLY J!
0K!
0L!
0M!
0N!
0O!
0P!
0Q!
0R!
0S!
0T!
0U!
0V!
0W!
0X!
0Y!
0Z!
0[!
0\!
0]!
0^!
0_!
0`!
0a!
0b!
0c!
0d!
0e!
0f!
0g!
0h!
0i!
0j!
0k!
0l!
0m!
0n!
0o!
0p!
0q!
0r!
0s!
0t!
0u!
0v!
0w!
0x!
0y!
0z!
$end
#500000000
1!
12!
0+
0*
0O
0#!
0'!
0D!
0<!
03!
0@!
08!
b10 4
1<
b1010 4
1H
b1 %
b1 $
b1 M
b1 !!
1+
1*
1O
1#!
1+!
1R!
1P!
1N!
13!
1L!
1V!
1T!
1S!
1U!
#1000000000
0!
#1500000000
1!
1~
1|
0+
0*
0O
0#!
0+!
0R!
0P!
0N!
03!
0L!
0V!
0T!
0S!
0U!
b1000 4
0<
b0 4
0H
1+
1*
1O
1#!
1+!
1R!
1P!
1N!
13!
1L!
1V!
1T!
1S!
1U!
#2000000000
0!
#2500000000
1!
1r
1^
0~
0|
1]
1q
1M!
1Q!
b1010 *!
0+
0*
0O
0#!
0+!
0R!
0P!
0N!
03!
0L!
0V!
0T!
0S!
0U!
1+
1*
1O
1#!
1+!
1R!
1P!
1N!
13!
1L!
1V!
1T!
1S!
1U!
#3000000000
0!
#3500000000
1!
0r
0^
b1010 4!
0]
b1010 "!
0q
b1010 N
0M!
0Q!
b0 *!
b1010 (
b1010 '
0+
0*
0O
0#!
0+!
0R!
0P!
0N!
03!
0L!
0V!
0T!
0S!
0U!
1+
1*
1O
1#!
1+!
1R!
1P!
1N!
13!
1L!
1V!
1T!
1S!
1U!
#4000000000
0!
#4500000000
1!
b0 4!
b0 "!
b0 N
b0 (
b0 '
0+
0*
0O
0#!
0+!
0R!
0P!
0N!
03!
0L!
0V!
0T!
0S!
0U!
b10 %
b10 $
b10 M
b10 !!
1+
1*
1O
1#!
1-!
13!
1`!
1\!
1X!
1d!
11
10
1Q
1%!
15!
b1111 .
b1111 -
b1111 P
b1111 $!
#5000000000
0!
#5500000000
1!
1/!
b1111 6!
1Z!
1f!
b1111 .!
1^!
b1111 (!
b1111 0!
1b!
1Y!
1k!
1]!
1m!
1q!
b11 =!
1o!
1a!
b11 9!
1e!
1U
1c
1`
1X
0+
0*
0O
0#!
0-!
03!
0`!
0\!
0X!
0d!
01
00
0Q
0%!
05!
#6000000000
0!
#6500000000
1!
1g!
0/!
02!
1h!
1i!
1j!
1f
0Z!
0f!
1W!
0^!
1[
1[!
1_!
1z
1c!
0b!
1p
1D
1>
17
b1111 ,!
1J
b1111 6
b11 %
b11 $
b11 M
b11 !!
11
10
1Q
1%!
15!
b100010 .
b100010 -
b100010 P
b100010 $!
#7000000000
0!
#7500000000
1!
11!
b100010 6!
b10 .!
1l!
1v!
1n!
b100010 (!
1p!
b100010 0!
1x!
1r!
1z!
1t!
1l
0Y!
1u!
0k!
1s
b10 A!
1i
1b
1W
0q!
b0 =!
0o!
0a!
1_
1v
b10 9!
1T
0e!
0`
1m
0U
0c
1Y
1a
1V
1d
0d
1n
0a
0V
01
00
0Q
0%!
05!
#8000000000
0!
#8500000000
1!
01!
0i!
0g!
0l!
0W!
0v!
0n!
0[
0p!
0x!
0_!
0r!
0p
0z!
0t!
0l
0D
0s
0b
0i
07
0W
b1010 ,!
0_
0v
0T
b1010 6
0n
0Y
b10 %
b10 $
b10 M
b10 !!
1+
1*
1O
1#!
1-!
13!
1`!
1\!
1X!
1d!
11
10
1Q
1%!
15!
b0 .
b0 -
b0 P
b0 $!
#9000000000
0!
#9500000000
1!
1/!
b0 6!
b1010 4!
12!
1Z!
b1010 "!
1f!
b0 .!
b0 (!
1^!
b0 0!
1b!
0u!
0]!
b1010 N
0m!
b0 A!
b0 9!
b1010 (
0m
0X
b1010 '
0+
0*
0O
0#!
0-!
03!
0`!
0\!
0X!
0d!
01
00
0Q
0%!
05!
#10000000000
0!
#10500000000
1!
0h!
0/!
0j!
02!
0f
0Z!
b0 "!
0f!
0^!
0[!
0z
0c!
0b!
0>
b0 N
0J
b0 ,!
b0 6
b0 (
b0 '
b11 %
b11 $
b11 M
b11 !!
11
10
1Q
1%!
15!
b1000100 .
b1000100 -
b1000100 P
b1000100 $!
#11000000000
0!
#11500000000
1!
11!
b1000100 6!
b100 .!
1l!
1v!
1n!
b1000100 (!
1p!
b1000100 0!
1x!
1r!
1z!
1t!
1l
1s
b1 E!
1w!
1i
1b
1W
b1 =!
1a!
1o!
1_
1v
1T
1t
1`
1a
1u
01
00
0Q
0%!
05!
#12000000000
0!
#12500000000
1!
1h!
01!
1j!
1f
0l!
0v!
0n!
1[!
0p!
0x!
1z
1c!
0r!
0z!
0t!
0l
0s
1>
0b
0i
0v
0W
b1010 ,!
0_
1J
0T
b1010 6
0a
0u
b10 %
b10 $
b10 M
b10 !!
1+
1*
1O
1#!
1-!
13!
1`!
1\!
1X!
1d!
11
10
1Q
1%!
15!
b0 .
b0 -
b0 P
b0 $!
#13000000000
0!
#13500000000
1!
1/!
b0 6!
12!
1Z!
b1010 "!
1f!
b0 .!
b0 (!
1^!
b0 0!
1b!
b1010 N
0w!
b0 =!
0a!
0o!
b0 E!
0t
0`
b1010 (
b1010 '
0+
0*
0O
0#!
0-!
03!
0`!
0\!
0X!
0d!
01
00
0Q
0%!
05!
#14000000000
0!
#14500000000
1!
0h!
0/!
0j!
02!
0f
0Z!
b0 "!
0f!
0^!
0[!
0z
0c!
0b!
0>
b0 N
0J
b0 ,!
b0 6
b0 (
b0 '
b11 %
b11 $
b11 M
b11 !!
11
10
1Q
1%!
15!
b11111111 .
b11111111 -
b11111111 P
b11111111 $!
#15000000000
0!
#15500000000
1!
11!
b11111111 6!
b1111 .!
1l!
1v!
1n!
b11111111 (!
1p!
b11111111 0!
1x!
1r!
1z!
1t!
1s
1m!
b11 A!
1W
1o!
1v
1Y!
1k!
1i
1q!
b11 9!
1l
1u!
1]!
1w!
1a!
1y!
1_
1e!
1b
b11 =!
b11 E!
1s!
1T
1w
1`
1m
1U
1t
1c
1j
1X
1u
1x
1k
1Y
1n
1a
1V
1d
01
00
0Q
0%!
05!
#16000000000
0!
#16500000000
1!
01!
0l!
0v!
0n!
0p!
0x!
0r!
0z!
0t!
0l
0s
0b
0i
0W
0_
0v
0T
0u
0x
0k
0Y
0n
0a
0V
0d
b0 %
b0 $
b0 M
b0 !!
11
10
1Q
1%!
15!
b1010101 .
b1010101 -
b1010101 P
b1010101 $!
#17000000000
0!
#17500000000
1!
1)!
b1010101 6!
b101 .!
1>!
b1010101 (!
b1010101 0!
1B!
1F!
1:!
0u!
0]!
0m!
b1 A!
0q!
b1 =!
0y!
b1 E!
b1 9!
0e!
0w
0c
0m
0X
01
00
0Q
0%!
05!
#18000000000
0!
#18500000000
1!
sPUSH_PULL J!
sPUSH_PULL H!
sPUSH_PULL I!
sPUSH_PULL G!
0)!
sPUSH_PULL Z
b1 C!
b1 7!
0>!
sPUSH_PULL y
b1 ?!
sPUSH_PULL o
0B!
b1 ;!
sPUSH_PULL e
0F!
0:!
1L
1F
1@
b1010101 &!
1:
b1111 9
b10 4
1<
b1010 4
1H
b1 %
b1 $
b1 M
b1 !!
1+
1*
1O
1#!
1+!
1R!
1P!
1N!
13!
1L!
1V!
1T!
1S!
1U!
b0 .
b0 -
b0 P
b0 $!
#19000000000
0!
#19500000000
1!
b0 4!
1~
1|
12!
0+
0*
0O
0#!
0+!
0R!
0P!
0N!
03!
0L!
0V!
0T!
0S!
0U!
b1000 4
0<
b0 4
0H
1+
1*
1O
1#!
1+!
1R!
1P!
1N!
13!
1L!
1V!
1T!
1S!
1U!
#20000000000
0!
#20500000000
1!
1r
1^
0~
0|
1]
1q
1M!
1Q!
b1010 *!
0+
0*
0O
0#!
0+!
0R!
0P!
0N!
03!
0L!
0V!
0T!
0S!
0U!
1+
1*
1O
1#!
1+!
1R!
1P!
1N!
13!
1L!
1V!
1T!
1S!
1U!
#21000000000
0!
#21500000000
1!
0r
0^
b1010 4!
0]
b1010 "!
0q
b1010 N
0M!
0Q!
b0 *!
b1010 (
b1010 '
0+
0*
0O
0#!
0+!
0R!
0P!
0N!
03!
0L!
0V!
0T!
0S!
0U!
1+
1*
1O
1#!
1+!
1R!
1P!
1N!
13!
1L!
1V!
1T!
1S!
1U!
#22000000000
0!
#22500000000
1!
b0 4!
b0 "!
b0 N
b0 (
b0 '
0+
0*
0O
0#!
0+!
0R!
0P!
0N!
03!
0L!
0V!
0T!
0S!
0U!
b10 %
b10 $
b10 M
b10 !!
1+
1*
1O
1#!
1-!
13!
1`!
1\!
1X!
1d!
11
10
1Q
1%!
15!
b1111 .
b1111 -
b1111 P
b1111 $!
#23000000000
0!
#23500000000
1!
1/!
b1111 6!
1Z!
1f!
b1111 .!
1^!
b1111 (!
b1111 0!
1b!
1]!
1m!
b0 A!
0w!
1q!
b11 =!
b0 E!
b11 9!
0s!
1e!
0t
0j
1c
1X
0+
0*
0O
0#!
0-!
03!
0`!
0\!
0X!
0d!
01
00
0Q
0%!
05!
#24000000000
0!
#24500000000
1!
1g!
0/!
02!
1h!
1i!
1j!
1f
0Z!
0f!
1W!
0^!
1[
1[!
1_!
1z
1c!
0b!
1p
1D
1>
17
b1111 ,!
1J
b1111 6
b11 %
b11 $
b11 M
b11 !!
11
10
1Q
1%!
15!
b100010 .
b100010 -
b100010 P
b100010 $!
#25000000000
0!
#25500000000
1!
11!
b100010 6!
b10 .!
1l!
1v!
1n!
b100010 (!
1p!
b100010 0!
1x!
1r!
1z!
1t!
1l
0Y!
1u!
0k!
1s
b10 A!
1i
1b
1W
0q!
b0 =!
0o!
0a!
1_
1v
b10 9!
1T
0e!
0`
1m
0U
0c
1Y
1a
1V
1d
0d
1n
0a
0V
01
00
0Q
0%!
05!
#26000000000
0!
#26500000000
1!
01!
0i!
0g!
0l!
0W!
0v!
0n!
0[
0p!
0x!
0_!
0r!
0p
0z!
0t!
0l
0D
0s
0b
0i
07
0W
b1010 ,!
0_
0v
0T
b1010 6
0n
0Y
b10 %
b10 $
b10 M
b10 !!
1+
1*
1O
1#!
1-!
13!
1`!
1\!
1X!
1d!
11
10
1Q
1%!
15!
b0 .
b0 -
b0 P
b0 $!
#27000000000
0!
#27500000000
1!
1/!
b0 6!
b1010 4!
12!
1Z!
b1010 "!
1f!
b0 .!
b0 (!
1^!
b0 0!
1b!
0u!
0]!
b1010 N
0m!
b0 A!
b0 9!
b1010 (
0m
0X
b1010 '
0+
0*
0O
0#!
0-!
03!
0`!
0\!
0X!
0d!
01
00
0Q
0%!
05!
#28000000000
0!
#28500000000
1!
0h!
0/!
0j!
02!
0f
0Z!
b0 "!
0f!
0^!
0[!
0z
0c!
0b!
0>
b0 N
0J
b0 ,!
b0 6
b0 (
b0 '
b11 %
b11 $
b11 M
b11 !!
11
10
1Q
1%!
15!
b1000100 .
b1000100 -
b1000100 P
b1000100 $!
#29000000000
0!
#29500000000
1!
11!
b1000100 6!
b100 .!
1l!
1v!
1n!
b1000100 (!
1p!
b1000100 0!
1x!
1r!
1z!
1t!
1l
1s
b1 E!
1w!
1i
1b
1W
b1 =!
1a!
1o!
1_
1v
1T
1t
1`
1a
1u
01
00
0Q
0%!
05!
#30000000000
0!
#30500000000
1!
1h!
01!
1j!
1f
0l!
0v!
0n!
1[!
0p!
0x!
1z
1c!
0r!
0z!
0t!
0l
0s
1>
0b
0i
0v
0W
b1010 ,!
0_
1J
0T
b1010 6
0a
0u
