smoke_test.vcd
$comment Generated by Amaranth $end
$date 2025-08-01 12:34:57.290081 $end
$timescale 1 fs $end
$scope module bench $end
$var wire 4 j! alt_mode $end
$scope module top $end
$var wire 1 ! clk $end
$var wire 1 " rst $end
$var wire 2 # bus__addr $end
$var wire 2 $ bus__addr$3 $end
$var wire 8 % bus__r_data $end
$var wire 8 & bus__r_data$5 $end
$var wire 1 ' bus__r_stb $end
$var wire 1 ( bus__r_stb$7 $end
$var wire 8 ) bus__w_data $end
$var wire 8 * bus__w_data$9 $end
$var wire 1 + bus__w_stb $end
$var wire 1 , bus__w_stb$11 $end
$var wire 1 - pins__0__i $end
$var wire 4 . pins__gpio__i $end
$var wire 4 / pins__gpio__o $end
$var wire 1 0 pins__0__o $end
$var wire 4 1 pins__gpio__oe $end
$var wire 1 2 pins__0__oe $end
$var wire 1 3 pins__1__i $end
$var wire 1 4 pins__1__o $end
$var wire 1 5 pins__1__oe $end
$var wire 1 6 pins__2__i $end
$var wire 1 7 pins__2__o $end
$var wire 1 8 pins__2__oe $end
$var wire 1 9 pins__3__i $end
$var wire 1 : pins__3__o $end
$var wire 1 ; pins__3__oe $end
$scope module _gpio $end
$var wire 1 ! clk $end
$var wire 1 " rst $end
$var wire 2 # bus__addr$1 $end
$var wire 8 & bus__r_data $end
$var wire 1 ' bus__r_stb$5 $end
$var wire 8 ) bus__w_data$7 $end
$var wire 1 + bus__w_stb$9 $end
$var wire 1 - pins__0__i $end
$var wire 1 0 pins__0__o $end
$var wire 1 2 pins__0__oe $end
$var wire 1 3 pins__1__i $end
$var wire 1 4 pins__1__o $end
$var wire 1 5 pins__1__oe $end
$var wire 1 6 pins__2__i $end
$var wire 1 7 pins__2__o $end
$var wire 1 8 pins__2__oe $end
$var wire 1 9 pins__3__i $end
$var wire 1 : pins__3__o $end
$var wire 1 ; pins__3__oe $end
$var wire 2 < bus__addr $end
$var wire 8 = bus__r_data$3 $end
$var wire 1 > bus__r_stb $end
$var wire 8 ? bus__w_data $end
$var wire 1 @ bus__w_stb $end
$var wire 1 A r_data $end
$var wire 1 B pin_0_i_sync_ff_1 $end
$var wire 1 C w_stb $end
$var wire 1 D w_data $end
$var wire 1 E set $end
$var wire 1 F w_stb$15 $end
$var wire 1 G w_data$16 $end
$var wire 1 H clr $end
$var string 1 I data $end
$var wire 1 J data$20 $end
$var wire 4 K alt_mode $end
$var wire 1 L r_data$23 $end
$var wire 1 M pin_1_i_sync_ff_1 $end
$var wire 1 N w_stb$25 $end
$var wire 1 O w_data$26 $end
$var wire 1 P set$27 $end
$var wire 1 Q w_stb$28 $end
$var wire 1 R w_data$29 $end
$var wire 1 S clr$30 $end
$var string 1 T data$31 $end
$var wire 1 U data$33 $end
$var wire 1 V r_data$35 $end
$var wire 1 W pin_2_i_sync_ff_1 $end
$var wire 1 X w_stb$37 $end
$var wire 1 Y w_data$38 $end
$var wire 1 Z set$39 $end
$var wire 1 [ w_stb$40 $end
$var wire 1 \ w_data$41 $end
$var wire 1 ] clr$42 $end
$var string 1 ^ data$43 $end
$var wire 1 _ data$45 $end
$var wire 1 ` r_data$47 $end
$var wire 1 a pin_3_i_sync_ff_1 $end
$var wire 1 b w_stb$49 $end
$var wire 1 c w_data$50 $end
$var wire 1 d set$51 $end
$var wire 1 e w_stb$52 $end
$var wire 1 f w_data$53 $end
$var wire 1 g clr$54 $end
$var string 1 h data$55 $end
$var wire 1 i data$57 $end
$var wire 1 j pin_0_i_sync_ff_0 $end
$var wire 1 k pin_1_i_sync_ff_0 $end
$var wire 1 l pin_2_i_sync_ff_0 $end
$var wire 1 m pin_3_i_sync_ff_0 $end
$scope module bridge $end
$var wire 1 ! clk $end
$var wire 1 " rst $end
$var wire 2 < bus__addr$1 $end
$var wire 8 = bus__r_data $end
$var wire 1 > bus__r_stb$5 $end
$var wire 8 ? bus__w_data$7 $end
$var wire 1 @ bus__w_stb$9 $end
$var wire 1 A r_data $end
$var wire 1 C w_stb $end
$var wire 1 D w_data $end
$var wire 1 E set $end
$var wire 1 F w_stb$47 $end
$var wire 1 G w_data$46 $end
$var wire 1 H clr $end
$var string 1 I data $end
$var wire 1 J data$32 $end
$var wire 1 L r_data$23 $end
$var wire 1 N w_stb$49 $end
$var wire 1 O w_data$48 $end
$var wire 1 P set$33 $end
$var wire 1 Q w_stb$51 $end
$var wire 1 R w_data$50 $end
$var wire 1 S clr$34 $end
$var string 1 T data$17 $end
$var wire 1 U data$35 $end
$var wire 1 V r_data$24 $end
$var wire 1 X w_stb$53 $end
$var wire 1 Y w_data$52 $end
$var wire 1 Z set$36 $end
$var wire 1 [ w_stb$55 $end
$var wire 1 \ w_data$54 $end
$var wire 1 ] clr$37 $end
$var string 1 ^ data$18 $end
$var wire 1 _ data$38 $end
$var wire 1 ` r_data$25 $end
$var wire 1 b w_stb$57 $end
$var wire 1 c w_data$56 $end
$var wire 1 d set$39 $end
$var wire 1 e w_stb$59 $end
$var wire 1 f w_data$58 $end
$var wire 1 g clr$40 $end
$var string 1 h data$19 $end
$var wire 1 i data$41 $end
$var wire 2 n bus__addr $end
$var wire 8 o bus__r_data$3 $end
$var wire 1 p bus__r_stb $end
$var wire 8 q bus__w_data $end
$var wire 1 r bus__w_stb $end
$var wire 8 s element__r_data $end
$var wire 1 t element__r_stb $end
$var wire 8 u element__w_data $end
$var wire 1 v element__w_stb $end
$var wire 4 w element__r_data$20 $end
$var wire 1 x element__r_stb$21 $end
$var wire 4 y element__r_data$26 $end
$var wire 1 z element__r_stb$27 $end
$var wire 4 { element__w_data$28 $end
$var wire 1 | element__w_stb$29 $end
$var wire 8 } element__w_data$42 $end
$var wire 1 ~ element__w_stb$43 $end
$scope module Input $end
$var wire 1 A r_data $end
$var wire 1 L r_data$11 $end
$var wire 1 V r_data$12 $end
$var wire 1 ` r_data$13 $end
$var wire 4 w element__r_data $end
$var wire 1 x element__r_stb $end
$var wire 1 :! port__r_data $end
$var wire 1 ;! port__r_stb $end
$var wire 1 <! port__r_data$4 $end
$var wire 1 =! port__r_stb$5 $end
$var wire 1 >! port__r_data$6 $end
$var wire 1 ?! port__r_stb$7 $end
$var wire 1 @! port__r_data$8 $end
$var wire 1 A! port__r_stb$9 $end
$scope module pin__0 $end
$var wire 1 A r_data $end
$var wire 1 :! port__r_data $end
$var wire 1 ;! port__r_stb $end
$var wire 1 B! r_stb $end
$upscope $end
$scope module pin__1 $end
$var wire 1 L r_data $end
$var wire 1 <! port__r_data $end
$var wire 1 =! port__r_stb $end
$var wire 1 C! r_stb $end
$upscope $end
$scope module pin__2 $end
$var wire 1 V r_data $end
$var wire 1 >! port__r_data $end
$var wire 1 ?! port__r_stb $end
$var wire 1 D! r_stb $end
$upscope $end
$scope module pin__3 $end
$var wire 1 ` r_data $end
$var wire 1 @! port__r_data $end
$var wire 1 A! port__r_stb $end
$var wire 1 E! r_stb $end
$upscope $end
$upscope $end
$scope module Mode $end
$var wire 1 ! clk $end
$var wire 1 " rst $end
$var string 1 I data $end
$var string 1 T data$23 $end
$var string 1 ^ data$24 $end
$var string 1 h data$25 $end
$var wire 8 s element__r_data $end
$var wire 1 t element__r_stb $end
$var wire 8 u element__w_data $end
$var wire 1 v element__w_stb $end
$var wire 2 &! port__r_data $end
$var wire 1 '! port__r_stb $end
$var wire 2 (! port__w_data $end
$var wire 1 )! port__w_stb $end
$var wire 2 *! port__r_data$8 $end
$var wire 1 +! port__r_stb$9 $end
$var wire 2 ,! port__w_data$10 $end
$var wire 1 -! port__w_stb$11 $end
$var wire 2 .! port__r_data$12 $end
$var wire 1 /! port__r_stb$13 $end
$var wire 2 0! port__w_data$14 $end
$var wire 1 1! port__w_stb$15 $end
$var wire 2 2! port__r_data$16 $end
$var wire 1 3! port__r_stb$17 $end
$var wire 2 4! port__w_data$18 $end
$var wire 1 5! port__w_stb$19 $end
$scope module pin__0 $end
$var wire 1 ! clk $end
$var wire 1 " rst $end
$var string 1 I data $end
$var wire 2 &! port__r_data $end
$var wire 2 (! port__w_data $end
$var wire 1 )! port__w_stb $end
$var string 1 6! _storage $end
$upscope $end
$scope module pin__1 $end
$var wire 1 ! clk $end
$var wire 1 " rst $end
$var string 1 T data $end
$var wire 2 *! port__r_data $end
$var wire 2 ,! port__w_data $end
$var wire 1 -! port__w_stb $end
$var string 1 7! _storage $end
$upscope $end
$scope module pin__2 $end
$var wire 1 ! clk $end
$var wire 1 " rst $end
$var string 1 ^ data $end
$var wire 2 .! port__r_data $end
$var wire 2 0! port__w_data $end
$var wire 1 1! port__w_stb $end
$var string 1 8! _storage $end
$upscope $end
$scope module pin__3 $end
$var wire 1 ! clk $end
$var wire 1 " rst $end
$var string 1 h data $end
$var wire 2 2! port__r_data $end
$var wire 2 4! port__w_data $end
$var wire 1 5! port__w_stb $end
$var string 1 9! _storage $end
$upscope $end
$upscope $end
$scope module Output $end
$var wire 1 ! clk $end
$var wire 1 " rst $end
$var wire 1 E set $end
$var wire 1 H clr $end
$var wire 1 J data $end
$var wire 1 P set$25 $end
$var wire 1 S clr$26 $end
$var wire 1 U data$27 $end
$var wire 1 Z set$28 $end
$var wire 1 ] clr$29 $end
$var wire 1 _ data$30 $end
$var wire 1 d set$31 $end
$var wire 1 g clr$32 $end
$var wire 1 i data$33 $end
$var wire 4 y element__r_data $end
$var wire 1 z element__r_stb $end
$var wire 4 { element__w_data $end
$var wire 1 | element__w_stb $end
$var wire 1 F! port__r_data $end
$var wire 1 G! port__r_stb $end
$var wire 1 H! port__w_data $end
$var wire 1 I! port__w_stb $end
$var wire 1 J! port__r_data$8 $end
$var wire 1 K! port__r_stb$9 $end
$var wire 1 L! port__w_data$10 $end
$var wire 1 M! port__w_stb$11 $end
$var wire 1 N! port__r_data$12 $end
$var wire 1 O! port__r_stb$13 $end
$var wire 1 P! port__w_data$14 $end
$var wire 1 Q! port__w_stb$15 $end
$var wire 1 R! port__r_data$16 $end
$var wire 1 S! port__r_stb$17 $end
$var wire 1 T! port__w_data$18 $end
$var wire 1 U! port__w_stb$19 $end
$scope module pin__0 $end
$var wire 1 ! clk $end
$var wire 1 " rst $end
$var wire 1 E set $end
$var wire 1 H clr $end
$var wire 1 J data $end
$var wire 1 F! port__r_data $end
$var wire 1 H! port__w_data $end
$var wire 1 I! port__w_stb $end
$var wire 1 V! _storage $end
$upscope $end
$scope module pin__1 $end
$var wire 1 ! clk $end
$var wire 1 " rst $end
$var wire 1 P set $end
$var wire 1 S clr $end
$var wire 1 U data $end
$var wire 1 J! port__r_data $end
$var wire 1 L! port__w_data $end
$var wire 1 M! port__w_stb $end
$var wire 1 W! _storage $end
$upscope $end
$scope module pin__2 $end
$var wire 1 ! clk $end
$var wire 1 " rst $end
$var wire 1 Z set $end
$var wire 1 ] clr $end
$var wire 1 _ data $end
$var wire 1 N! port__r_data $end
$var wire 1 P! port__w_data $end
$var wire 1 Q! port__w_stb $end
$var wire 1 X! _storage $end
$upscope $end
$scope module pin__3 $end
$var wire 1 ! clk $end
$var wire 1 " rst $end
$var wire 1 d set $end
$var wire 1 g clr $end
$var wire 1 i data $end
$var wire 1 R! port__r_data $end
$var wire 1 T! port__w_data $end
$var wire 1 U! port__w_stb $end
$var wire 1 Y! _storage $end
$upscope $end
$upscope $end
$scope module SetClr $end
$var wire 1 C w_stb $end
$var wire 1 D w_data $end
$var wire 1 F w_stb$21 $end
$var wire 1 G w_data$20 $end
$var wire 1 N w_stb$23 $end
$var wire 1 O w_data$22 $end
$var wire 1 Q w_stb$25 $end
$var wire 1 R w_data$24 $end
$var wire 1 X w_stb$27 $end
$var wire 1 Y w_data$26 $end
$var wire 1 [ w_stb$29 $end
$var wire 1 \ w_data$28 $end
$var wire 1 b w_stb$31 $end
$var wire 1 c w_data$30 $end
$var wire 1 e w_stb$33 $end
$var wire 1 f w_data$32 $end
$var wire 8 } element__w_data $end
$var wire 1 ~ element__w_stb $end
$var wire 1 Z! port__w_data $end
$var wire 1 [! port__w_stb $end
$var wire 1 \! port__w_data$4 $end
$var wire 1 ]! port__w_stb$5 $end
$var wire 1 ^! port__w_data$6 $end
$var wire 1 _! port__w_stb$7 $end
$var wire 1 `! port__w_data$8 $end
$var wire 1 a! port__w_stb$9 $end
$var wire 1 b! port__w_data$10 $end
$var wire 1 c! port__w_stb$11 $end
$var wire 1 d! port__w_data$12 $end
$var wire 1 e! port__w_stb$13 $end
$var wire 1 f! port__w_data$14 $end
$var wire 1 g! port__w_stb$15 $end
$var wire 1 h! port__w_data$16 $end
$var wire 1 i! port__w_stb$17 $end
$scope module pin__0__clr $end
$var wire 1 F w_stb $end
$var wire 1 G w_data $end
$var wire 1 \! port__w_data $end
$var wire 1 ]! port__w_stb $end
$upscope $end
$scope module pin__0__set $end
$var wire 1 C w_stb $end
$var wire 1 D w_data $end
$var wire 1 Z! port__w_data $end
$var wire 1 [! port__w_stb $end
$upscope $end
$scope module pin__1__clr $end
$var wire 1 Q w_stb $end
$var wire 1 R w_data $end
$var wire 1 `! port__w_data $end
$var wire 1 a! port__w_stb $end
$upscope $end
$scope module pin__1__set $end
$var wire 1 N w_stb $end
$var wire 1 O w_data $end
$var wire 1 ^! port__w_data $end
$var wire 1 _! port__w_stb $end
$upscope $end
$scope module pin__2__clr $end
$var wire 1 [ w_stb $end
$var wire 1 \ w_data $end
$var wire 1 d! port__w_data $end
$var wire 1 e! port__w_stb $end
$upscope $end
$scope module pin__2__set $end
$var wire 1 X w_stb $end
$var wire 1 Y w_data $end
$var wire 1 b! port__w_data $end
$var wire 1 c! port__w_stb $end
$upscope $end
$scope module pin__3__clr $end
$var wire 1 e w_stb $end
$var wire 1 f w_data $end
$var wire 1 h! port__w_data $end
$var wire 1 i! port__w_stb $end
$upscope $end
$scope module pin__3__set $end
$var wire 1 b w_stb $end
$var wire 1 c w_data $end
$var wire 1 f! port__w_data $end
$var wire 1 g! port__w_stb $end
$upscope $end
$upscope $end
$scope module mux $end
$var wire 1 ! clk $end
$var wire 1 " rst $end
$var wire 2 n bus__addr $end
$var wire 8 o bus__r_data $end
$var wire 1 p bus__r_stb $end
$var wire 8 q bus__w_data $end
$var wire 1 r bus__w_stb $end
$var wire 8 s element__r_data $end
$var wire 1 t element__r_stb $end
$var wire 8 u element__w_data $end
$var wire 1 v element__w_stb $end
$var wire 4 w element__r_data$10 $end
$var wire 1 x element__r_stb$9 $end
$var wire 4 y element__r_data$12 $end
$var wire 1 z element__r_stb$11 $end
$var wire 4 { element__w_data$22 $end
$var wire 1 | element__w_stb$14 $end
$var wire 8 } element__w_data$23 $end
$var wire 1 ~ element__w_stb$15 $end
$var wire 1 !! r_shadow__0__r_en $end
$var wire 1 "! r_shadow__0__w_en $end
$var wire 8 #! r_shadow__0__data $end
$var wire 1 $! w_shadow__0__w_en $end
$var wire 8 %! w_shadow__0__data $end
$upscope $end
$upscope $end
$upscope $end
$upscope $end
$upscope $end
$enddefinitions $end
#0
$dumpvars
0!
0"
b0 #
b0 $
b0 %
b0 &
1'
1(
b0 )
b0 *
0+
0,
0-
b0 .
b0 /
00
b0 1
02
03
04
05
06
07
08
09
0:
0;
b0 <
b0 =
1>
b0 ?
0@
0A
0B
0C
0D
0E
0F
0G
0H
sINPUT_ONLY I
0J
b0 K
0L
0M
0N
0O
0P
0Q
0R
0S
sINPUT_ONLY T
0U
0V
0W
0X
0Y
0Z
0[
0\
0]
sINPUT_ONLY ^
0_
0`
0a
0b
0c
0d
0e
0f
0g
sINPUT_ONLY h
0i
0j
0k
0l
0m
b0 n
b0 o
1p
b0 q
0r
b0 s
1t
b0 u
0v
b0 w
0x
b0 y
0z
b0 {
0|
b0 }
0~
0!!
1"!
b0 #!
0$!
b0 %!
b0 &!
1'!
b0 (!
0)!
b0 *!
1+!
b0 ,!
0-!
b0 .!
1/!
b0 0!
01!
b0 2!
13!
b0 4!
05!
sINPUT_ONLY 6!
sINPUT_ONLY 7!
sINPUT_ONLY 8!
sINPUT_ONLY 9!
0:!
0;!
0<!
0=!
0>!
0?!
0@!
0A!
0B!
0C!
0D!
0E!
0F!
0G!
0H!
0I!
0J!
0K!
0L!
0M!
0N!
0O!
0P!
0Q!
0R!
0S!
0T!
0U!
0V!
0W!
0X!
0Y!
0Z!
0[!
0\!
0]!
0^!
0_!
0`!
0a!
0b!
0c!
0d!
0e!
0f!
0g!
0h!
0i!
b0 j!
$end
#500000000
1!
1!!
0(
0'
0>
0p
0t
0+!
0/!
0"!
03!
0'!
b10 .
13
b1010 .
19
b1 $
b1 #
b1 <
b1 n
1(
1'
1>
1p
1x
1?!
1;!
1"!
1A!
1=!
1B!
1C!
1E!
1D!
#1000000000
0!
#1500000000
1!
1m
1k
0(
0'
0>
0p
0x
0?!
0;!
0"!
0A!
0=!
0B!
0C!
0E!
0D!
b1000 .
03
b0 .
09
1(
1'
1>
1p
1x
1?!
1;!
1"!
1A!
1=!
1B!
1C!
1E!
1D!
#2000000000
0!
#2500000000
1!
0m
0k
1M
1a
1L
1`
1@!
1<!
b1010 w
0(
0'
0>
0p
0x
0?!
0;!
0"!
0A!
0=!
0B!
0C!
0E!
0D!
1(
1'
1>
1p
1x
1?!
1;!
1"!
1A!
1=!
1B!
1C!
1E!
1D!
#3000000000
0!
#3500000000
1!
0M
0a
b1010 #!
0L
0`
b1010 o
b1010 =
0@!
0<!
b0 w
b1010 &
b1010 %
0(
0'
0>
0p
0x
0?!
0;!
0"!
0A!
0=!
0B!
0C!
0E!
0D!
1(
1'
1>
1p
1x
1?!
1;!
1"!
1A!
1=!
1B!
1C!
1E!
1D!
#4000000000
0!
#4500000000
1!
b0 #!
b0 o
b0 =
b0 &
b0 %
0(
0'
0>
0p
0x
0?!
0;!
0"!
0A!
0=!
0B!
0C!
0E!
0D!
b10 $
b10 #
b10 <
b10 n
1(
1'
1>
1p
1z
1S!
1K!
1"!
1G!
1O!
1,
1+
1@
1r
1$!
b1111 *
b1111 )
b1111 ?
b1111 q
#5000000000
0!
#5500000000
1!
b1111 %!
1|
b1111 {
b1111 u
1Q!
1U!
1I!
b1111 }
1M!
1P!
1\!
1H!
1T!
1Z!
b11 (!
1^!
b11 ,!
1L!
1`!
1D
1G
1O
1R
0(
0'
0>
0p
0z
0S!
0K!
0"!
0G!
0O!
0,
0+
0@
0r
0$!
#6000000000
0!
#6500000000
1!
1Y!
0|
1X!
1V!
1W!
0!!
1i
1J
1F!
0Q!
1_
1U
1N!
0U!
0I!
0M!
1R!
1J!
17
10
1:
14
b1111 y
b1111 /
b11 $
b11 #
b11 <
b11 n
1,
1+
1@
1r
1$!
b100010 *
b100010 )
b100010 ?
b100010 q
#7000000000
0!
#7500000000
1!
b100010 %!
1~
b10 {
1g!
b100010 u
1a!
1[!
1i!
1c!
1]!
b100010 }
1e!
1_!
1X
0P!
0H!
0T!
1e
1[
0Z!
1F
1N
1b
0^!
1d!
1Q
b10 (!
b10 0!
b0 ,!
1C
0`!
1E
1H
1\
1P
1S
0D
0O
0R
0E
1]
0P
0S
0,
0+
0@
0r
0$!
#8000000000
0!
#8500000000
1!
0~
0V!
0X!
0g!
0J
0F!
0a!
0_
0[!
0i!
0N!
0c!
0]!
0e!
0_!
0X
07
0e
0Q
0F
0N
0b
00
0C
b1010 y
0[
0]
b1010 /
0H
b10 $
b10 #
b10 <
b10 n
1(
1'
1>
1p
1z
1S!
1K!
1"!
1G!
1O!
1,
1+
1@
1r
1$!
b0 *
b0 )
b0 ?
b0 q
#9000000000
0!
#9500000000
1!
b0 %!
1|
1!!
b1010 #!
b0 {
b0 u
1Q!
1U!
b1010 o
1I!
b0 }
1M!
0\!
0L!
b0 (!
b1010 =
0d!
b0 0!
0\
0G
b1010 &
b1010 %
0(
0'
0>
0p
0z
0S!
0K!
0"!
0G!
0O!
0,
0+
0@
0r
0$!
#10000000000
0!
#10500000000
1!
0Y!
0|
0!!
0W!
0i
0Q!
0U
0U!
b0 o
0I!
0M!
0R!
0J!
b0 =
04
b0 y
0:
b0 /
b0 &
b0 %
b11 $
b11 #
b11 <
b11 n
1,
1+
1@
1r
1$!
b1000100 *
b1000100 )
b1000100 ?
b1000100 q
#11000000000
0!
#11500000000
1!
b1000100 %!
1~
b100 {
1g!
b1000100 u
1a!
1[!
1i!
1c!
1]!
b1000100 }
1e!
1_!
1X
1P!
b1 4!
1e
1Q
1F
1N
1b
1^!
b1 ,!
1C
1f!
1[
1O
1c
1d
1P
0,
0+
0@
0r
0$!
#12000000000
0!
#12500000000
1!
1Y!
0~
1W!
1i
0g!
0a!
0[!
1U
0i!
0c!
0]!
0e!
0_!
1R!
1J!
0X
0e
0Q
0F
0N
0b
1:
0C
14
b1010 y
0[
b1010 /
0d
0P
b10 $
b10 #
b10 <
b10 n
1(
1'
1>
1p
1z
1S!
1K!
1"!
1G!
1O!
1,
1+
1@
1r
1$!
b0 *
b0 )
b0 ?
b0 q
#13000000000
0!
#13500000000
1!
b0 %!
1|
1!!
b0 {
b0 u
1Q!
1U!
b1010 o
1I!
b0 }
1M!
0P!
b0 4!
b1010 =
0^!
b0 ,!
0f!
0c
0O
b1010 &
b1010 %
0(
0'
0>
0p
0z
0S!
0K!
0"!
0G!
0O!
0,
0+
0@
0r
0$!
#14000000000
0!
#14500000000
1!
0Y!
0|
0!!
0W!
0i
0Q!
0U
0U!
b0 o
0I!
0M!
0R!
0J!
b0 =
04
b0 y
0:
b0 /
b0 &
b0 %
b11 $
b11 #
b11 <
b11 n
1,
1+
1@
1r
1$!
b11111111 *
b11111111 )
b11111111 ?
b11111111 q
#15000000000
0!
#15500000000
1!
b11111111 %!
1~
b1111 {
1g!
b11111111 u
1a!
1[!
1i!
1c!
1]!
b11111111 }
1e!
1_!
1e
1Z!
b11 (!
1L!
1`!
1H!
1b!
1F
1d!
1f!
1X
1P!
1h!
1T!
1N
b11 ,!
1C
1[
1\!
b11 4!
1Q
1^!
1b
b11 0!
1c
1G
1f
1Y
1\
1D
1O
1R
1E
1]
1d
1H
1Z
1P
1S
1g
0,
0+
0@
0r
0$!
#16000000000
0!
#16500000000
1!
0~
0g!
0a!
0[!
0i!
0c!
0]!
0e!
0_!
0X
0e
0Q
0F
0N
0b
0C
0[
0E
0]
0d
0H
0Z
0P
0S
0g
b0 $
b0 #
b0 <
b0 n
1,
1+
1@
1r
1$!
b1010101 *
b1010101 )
b1010101 ?
b1010101 q
#17000000000
0!
#17500000000
1!
b1010101 %!
1v
b101 {
11!
b1010101 u
15!
b1010101 }
1)!
1-!
0\!
b1 4!
0h!
0T!
0L!
b1 (!
0d!
b1 ,!
b1 0!
0`!
0\
0G
0f
0R
0,
0+
0@
0r
0$!
#18000000000
0!
#18500000000
1!
sPUSH_PULL 6!
0v
sPUSH_PULL 7!
sPUSH_PULL 8!
sPUSH_PULL 9!
01!
b1 *!
sPUSH_PULL I
b1 2!
b1 &!
05!
sPUSH_PULL T
b1 .!
sPUSH_PULL h
sPUSH_PULL ^
0)!
0-!
b1010101 s
1;
15
18
12
b1111 1
b10 .
13
b1010 .
19
b1 $
b1 #
b1 <
b1 n
1(
1'
1>
1p
1x
1?!
1;!
1"!
1A!
1=!
1B!
1C!
1E!
1D!
b0 *
b0 )
b0 ?
b0 q
#19000000000
0!
#19500000000
1!
1m
1k
1!!
b0 #!
0(
0'
0>
0p
0x
0?!
0;!
0"!
0A!
0=!
0B!
0C!
0E!
0D!
b1000 .
03
b0 .
09
1(
1'
1>
1p
1x
1?!
1;!
1"!
1A!
1=!
1B!
1C!
1E!
1D!
#20000000000
0!
#20500000000
1!
0m
0k
1M
1a
1L
1`
1@!
1<!
b1010 w
0(
0'
0>
0p
0x
0?!
0;!
0"!
0A!
0=!
0B!
0C!
0E!
0D!
1(
1'
1>
1p
1x
1?!
1;!
1"!
1A!
1=!
1B!
1C!
1E!
1D!
#21000000000
0!
#21500000000
1!
0M
0a
b1010 #!
0L
0`
b1010 o
b1010 =
0@!
0<!
b0 w
b1010 &
b1010 %
0(
0'
0>
0p
0x
0?!
0;!
0"!
0A!
0=!
0B!
0C!
0E!
0D!
1(
1'
1>
1p
1x
1?!
1;!
1"!
1A!
1=!
1B!
1C!
1E!
1D!
#22000000000
0!
#22500000000
1!
b0 #!
b0 o
b0 =
b0 &
b0 %
0(
0'
0>
0p
0x
0?!
0;!
0"!
0A!
0=!
0B!
0C!
0E!
0D!
b10 $
b10 #
b10 <
b10 n
1(
1'
1>
1p
1z
1S!
1K!
1"!
1G!
1O!
1,
1+
1@
1r
1$!
b1111 *
b1111 )
b1111 ?
b1111 q
#23000000000
0!
#23500000000
1!
b1111 %!
1|
b1111 {
b1111 u
1Q!
1U!
1I!
b1111 }
1M!
1\!
b0 4!
1T!
0b!
1L!
b11 (!
b11 ,!
b0 0!
0f!
1`!
1G
0Y
0c
1R
0(
0'
0>
0p
0z
0S!
0K!
0"!
0G!
0O!
0,
0+
0@
0r
0$!
#24000000000
0!
#24500000000
1!
1Y!
0|
1X!
1V!
1W!
0!!
1i
1J
1F!
0Q!
1_
1U
1N!
0U!
0I!
0M!
1R!
1J!
17
10
1:
14
b1111 y
b1111 /
b11 $
b11 #
b11 <
b11 n
1,
1+
1@
1r
1$!
b100010 *
b100010 )
b100010 ?
b100010 q
#25000000000
0!
#25500000000
1!
b100010 %!
1~
b10 {
1g!
b100010 u
1a!
1[!
1i!
1c!
1]!
b100010 }
1e!
1_!
1X
0P!
0H!
0T!
1e
1[
0Z!
1F
1N
1b
0^!
1d!
1Q
b10 (!
b10 0!
b0 ,!
1C
0`!
1E
1H
1\
1P
1S
0D
0O
0R
0E
1]
0P
0S
0,
0+
0@
0r
0$!
#26000000000
0!
#26500000000
1!
0~
0V!
0X!
0g!
0J
0F!
0a!
0_
0[!
0i!
0N!
0c!
0]!
0e!
0_!
0X
07
0e
0Q
0F
0N
0b
00
0C
b1010 y
0[
0]
b1010 /
0H
b10 $
b10 #
b10 <
b10 n
1(
1'
1>
1p
1z
1S!
1K!
1"!
1G!
1O!
1,
1+
1@
1r
1$!
b0 *
b0 )
b0 ?
b0 q
#27000000000
0!
#27500000000
1!
b0 %!
1|
1!!
b1010 #!
b0 {
b0 u
1Q!
1U!
b1010 o
1I!
b0 }
1M!
0\!
0L!
b0 (!
b1010 =
0d!
b0 0!
0\
0G
b1010 &
b1010 %
0(
0'
0>
0p
0z
0S!
0K!
0"!
0G!
0O!
0,
0+
0@
0r
0$!
#28000000000
0!
#28500000000
1!
0Y!
0|
0!!
0W!
0i
0Q!
0U
0U!
b0 o
0I!
0M!
0R!
0J!
b0 =
04
b0 y
0:
b0 /
b0 &
b0 %
b11 $
b11 #
b11 <
b11 n
1,
1+
1@
1r
1$!
b1000100 *
b1000100 )
b1000100 ?
b1000100 q
#29000000000
0!
#29500000000
1!
b1000100 %!
1~
b100 {
1g!
b1000100 u
1a!
1[!
1i!
1c!
1]!
b1000100 }
1e!
1_!
1X
1P!
b1 4!
1e
1Q
1F
1N
1b
1^!
b1 ,!
1C
1f!
1[
1O
1c
1d
1P
0,
0+
0@
0r
0$!
#30000000000
0!
#30500000000
1!
1Y!
0~
1W!
1i
0g!
0a!
0[!
1U
0i!
0c!
0]!
0e!
0_!
1R!
1J!
0X
0e
0Q
0F
0N
0b
1:
0C
14
b1010 y
0[
b1010 /
0d
0P
