spi_xfer_test.vcd
$comment Generated by Amaranth $end
$date 2025-08-05 19:37:06.143007 $end
$timescale 1 fs $end
$scope module bench $end
$scope module top $end
$var wire 1 ! clk $end
$var wire 1 " rst $end
$var wire 5 # bus__addr $end
$var wire 5 $ bus__addr$3 $end
$var wire 8 % bus__r_data $end
$var wire 8 & bus__r_data$5 $end
$var wire 1 ' bus__r_stb $end
$var wire 1 ( bus__r_stb$7 $end
$var wire 8 ) bus__w_data $end
$var wire 8 * bus__w_data$9 $end
$var wire 1 + bus__w_stb $end
$var wire 1 , bus__w_stb$11 $end
$var wire 1 - spi__cipo__i $end
$var wire 1 . spi_pins__cipo__i $end
$var wire 1 / spi_pins__copi__o $end
$var wire 1 0 spi__copi__o $end
$var wire 1 1 spi_pins__csn__o $end
$var wire 1 2 spi__csn__o $end
$var wire 1 3 spi_pins__sck__o $end
$var wire 1 4 spi__sck__o $end
$var wire 1 5 sck_idle $end
$var wire 1 6 data $end
$var wire 1 7 sck_edge $end
$var wire 1 8 data$23 $end
$var wire 1 9 cs $end
$var wire 1 : data$25 $end
$var wire 5 ; width $end
$var wire 5 < data$27 $end
$var wire 8 = divider $end
$var wire 8 > data$29 $end
$var wire 1 ? start_xfer $end
$var wire 1 @ w_stb $end
$var wire 32 A d_send $end
$var wire 32 B w_data $end
$var wire 32 C r_data $end
$var wire 32 D d_recv $end
$var wire 1 E r_stb $end
$var wire 1 F done $end
$var wire 1 G r_data$38 $end
$scope module bridge $end
$var wire 1 ! clk $end
$var wire 1 " rst $end
$var wire 5 # bus__addr$1 $end
$var wire 8 & bus__r_data $end
$var wire 1 ' bus__r_stb$5 $end
$var wire 8 ) bus__w_data$7 $end
$var wire 1 + bus__w_stb$9 $end
$var wire 1 6 data $end
$var wire 1 8 data$17 $end
$var wire 1 : data$18 $end
$var wire 5 < data$19 $end
$var wire 8 > data$24 $end
$var wire 1 @ w_stb $end
$var wire 32 B w_data $end
$var wire 32 C r_data $end
$var wire 1 E r_stb $end
$var wire 1 G r_data$35 $end
$var wire 5 H bus__addr $end
$var wire 8 I bus__r_data$3 $end
$var wire 1 J bus__r_stb $end
$var wire 8 K bus__w_data $end
$var wire 1 L bus__w_stb $end
$var wire 8 M element__r_data $end
$var wire 1 N element__r_stb $end
$var wire 8 O element__w_data $end
$var wire 1 P element__w_stb $end
$var wire 8 Q element__r_data$20 $end
$var wire 1 R element__r_stb$21 $end
$var wire 8 S element__w_data$22 $end
$var wire 1 T element__w_stb$23 $end
$var wire 32 U element__w_data$25 $end
$var wire 1 V element__w_stb$26 $end
$var wire 32 W element__r_data$29 $end
$var wire 1 X element__r_stb$30 $end
$var wire 1 Y element__r_data$33 $end
$var wire 1 Z element__r_stb$34 $end
$scope module config $end
$var wire 1 ! clk $end
$var wire 1 " rst $end
$var wire 1 6 data $end
$var wire 1 8 data$23 $end
$var wire 1 : data$24 $end
$var wire 5 < data$25 $end
$var wire 8 M element__r_data $end
$var wire 1 N element__r_stb $end
$var wire 8 O element__w_data $end
$var wire 1 P element__w_stb $end
$var wire 1 o port__r_data $end
$var wire 1 p port__r_stb $end
$var wire 1 q port__w_data $end
$var wire 1 r port__w_stb $end
$var wire 1 s port__r_data$8 $end
$var wire 1 t port__r_stb$9 $end
$var wire 1 u port__w_data$10 $end
$var wire 1 v port__w_stb$11 $end
$var wire 1 w port__r_data$12 $end
$var wire 1 x port__r_stb$13 $end
$var wire 1 y port__w_data$14 $end
$var wire 1 z port__w_stb$15 $end
$var wire 5 { port__r_data$16 $end
$var wire 1 | port__r_stb$17 $end
$var wire 5 } port__w_data$18 $end
$var wire 1 ~ port__w_stb$19 $end
$scope module chip_select $end
$var wire 1 ! clk $end
$var wire 1 " rst $end
$var wire 1 : data $end
$var wire 1 w port__r_data $end
$var wire 1 y port__w_data $end
$var wire 1 z port__w_stb $end
$var wire 1 #! _storage $end
$upscope $end
$scope module sck_edge $end
$var wire 1 ! clk $end
$var wire 1 " rst $end
$var wire 1 8 data $end
$var wire 1 s port__r_data $end
$var wire 1 u port__w_data $end
$var wire 1 v port__w_stb $end
$var wire 1 "! _storage $end
$upscope $end
$scope module sck_idle $end
$var wire 1 ! clk $end
$var wire 1 " rst $end
$var wire 1 6 data $end
$var wire 1 o port__r_data $end
$var wire 1 q port__w_data $end
$var wire 1 r port__w_stb $end
$var wire 1 !! _storage $end
$upscope $end
$scope module width $end
$var wire 1 ! clk $end
$var wire 1 " rst $end
$var wire 5 < data $end
$var wire 5 { port__r_data $end
$var wire 5 } port__w_data $end
$var wire 1 ~ port__w_stb $end
$var wire 5 $! _storage $end
$upscope $end
$upscope $end
$scope module divider $end
$var wire 1 ! clk $end
$var wire 1 " rst $end
$var wire 8 > data $end
$var wire 8 Q element__r_data $end
$var wire 1 R element__r_stb $end
$var wire 8 S element__w_data $end
$var wire 1 T element__w_stb $end
$var wire 8 %! port__r_data $end
$var wire 1 &! port__r_stb $end
$var wire 8 '! port__w_data $end
$var wire 1 (! port__w_stb $end
$scope module val $end
$var wire 1 ! clk $end
$var wire 1 " rst $end
$var wire 8 > data $end
$var wire 8 %! port__r_data $end
$var wire 8 '! port__w_data $end
$var wire 1 (! port__w_stb $end
$var wire 8 )! _storage $end
$upscope $end
$upscope $end
$scope module mux $end
$var wire 1 ! clk $end
$var wire 1 " rst $end
$var wire 5 H bus__addr $end
$var wire 8 I bus__r_data $end
$var wire 1 J bus__r_stb $end
$var wire 8 K bus__w_data $end
$var wire 1 L bus__w_stb $end
$var wire 8 M element__r_data $end
$var wire 1 N element__r_stb $end
$var wire 8 O element__w_data $end
$var wire 1 P element__w_stb $end
$var wire 8 Q element__r_data$10 $end
$var wire 1 R element__r_stb$9 $end
$var wire 8 S element__w_data$39 $end
$var wire 1 T element__w_stb$25 $end
$var wire 32 U element__w_data$40 $end
$var wire 1 V element__w_stb$34 $end
$var wire 32 W element__r_data$12 $end
$var wire 1 X element__r_stb$11 $end
$var wire 1 Y element__r_data$14 $end
$var wire 1 Z element__r_stb$13 $end
$var wire 1 [ r_shadow__0__r_en $end
$var wire 1 \ r_shadow__0__w_en $end
$var wire 8 ] r_shadow__0__data $end
$var wire 1 ^ r_shadow__1__r_en $end
$var wire 1 _ r_shadow__1__w_en $end
$var wire 8 ` r_shadow__1__data $end
$var wire 1 a r_shadow__2__r_en $end
$var wire 1 b r_shadow__2__w_en $end
$var wire 8 c r_shadow__2__data $end
$var wire 1 d r_shadow__3__r_en $end
$var wire 1 e r_shadow__3__w_en $end
$var wire 8 f r_shadow__3__data $end
$var wire 1 g w_shadow__0__w_en $end
$var wire 8 h w_shadow__0__data $end
$var wire 1 i w_shadow__1__w_en $end
$var wire 8 j w_shadow__1__data $end
$var wire 1 k w_shadow__2__w_en $end
$var wire 8 l w_shadow__2__data $end
$var wire 1 m w_shadow__3__w_en $end
$var wire 8 n w_shadow__3__data $end
$upscope $end
$scope module receive_data $end
$var wire 32 C r_data $end
$var wire 1 E r_stb $end
$var wire 32 W element__r_data $end
$var wire 1 X element__r_stb $end
$var wire 32 ,! port__r_data $end
$var wire 1 -! port__r_stb $end
$scope module val $end
$var wire 32 C r_data $end
$var wire 1 E r_stb $end
$var wire 32 ,! port__r_data $end
$var wire 1 -! port__r_stb $end
$upscope $end
$upscope $end
$scope module send_data $end
$var wire 1 @ w_stb $end
$var wire 32 B w_data $end
$var wire 32 U element__w_data $end
$var wire 1 V element__w_stb $end
$var wire 32 *! port__w_data $end
$var wire 1 +! port__w_stb $end
$scope module val $end
$var wire 1 @ w_stb $end
$var wire 32 B w_data $end
$var wire 32 *! port__w_data $end
$var wire 1 +! port__w_stb $end
$upscope $end
$upscope $end
$scope module status $end
$var wire 1 G r_data $end
$var wire 1 Y element__r_data $end
$var wire 1 Z element__r_stb $end
$var wire 1 .! port__r_data $end
$var wire 1 /! port__r_stb $end
$scope module recv_full $end
$var wire 1 G r_data $end
$var wire 1 .! port__r_data $end
$var wire 1 /! port__r_stb $end
$var wire 1 0! r_stb $end
$upscope $end
$upscope $end
$upscope $end
$scope module spi $end
$var wire 1 ! clk $end
$var wire 1 " rst $end
$var wire 1 - spi__cipo__i $end
$var wire 1 0 spi__copi__o $end
$var wire 1 2 spi__csn__o $end
$var wire 1 4 spi__sck__o $end
$var wire 1 5 sck_idle $end
$var wire 1 7 sck_edge $end
$var wire 1 9 cs $end
$var wire 5 ; width $end
$var wire 8 = divider $end
$var wire 1 ? start_xfer $end
$var wire 32 A d_send $end
$var wire 32 D d_recv $end
$var wire 1 F done $end
$var wire 1 1! sck $end
$var string 1 2! fsm_state $end
$var wire 8 3! div_ctr $end
$var wire 1 4! setup $end
$var wire 1 5! latch $end
$var wire 1 6! busy $end
$var wire 32 7! sr_i $end
$var wire 32 8! sr_o $end
$var wire 6 9! bit_count $end
$upscope $end
$upscope $end
$upscope $end
$enddefinitions $end
#0
$dumpvars
0!
0"
b0 #
b0 $
b0 %
b0 &
0'
0(
b1100000 )
b1100000 *
1+
1,
0-
0.
0/
00
11
12
03
04
05
06
07
08
09
0:
b0 ;
b0 <
b0 =
b0 >
0?
0@
b0 A
b0 B
b0 C
b0 D
0E
0F
0G
b0 H
b0 I
0J
b1100000 K
1L
b0 M
0N
b0 O
0P
b0 Q
0R
b0 S
0T
b0 U
0V
b0 W
0X
0Y
0Z
0[
0\
b0 ]
0^
0_
b0 `
0a
0b
b0 c
0d
0e
b0 f
1g
b0 h
0i
b0 j
0k
b0 l
0m
b0 n
0o
0p
0q
0r
0s
0t
0u
0v
0w
0x
0y
0z
b0 {
0|
b0 }
0~
0!!
0"!
0#!
b0 $!
b0 %!
0&!
b0 '!
0(!
b0 )!
b0 *!
0+!
b0 ,!
0-!
0.!
0/!
00!
01!
sIDLE/0 2!
b0 3!
04!
05!
06!
b0 7!
b0 8!
b0 9!
$end
#5000000000
1!
b1100000 h
1P
b1100000 O
b1100000 U
1~
1v
1z
1r
b1100000 S
b1100000 '!
b1100 }
b1100000 *!
b1100000 B
b1100000 A
b1 $
b1 #
b1 H
0g
b0 *
b0 )
b0 K
#10000000000
0!
#15000000000
1!
0P
b1100 $!
0~
b1100 {
0v
0z
0r
b1100 <
b1100 ;
b1100000 M
b10 $
b10 #
b10 H
#20000000000
0!
#25000000000
1!
b11 $
b11 #
b11 H
#30000000000
0!
#35000000000
1!
0,
0+
0L
b100 $
b100 #
b100 H
b1 *
b1 )
b1 K
1,
1+
1L
1g
#40000000000
0!
#45000000000
1!
b1 h
1T
b1 O
1(!
b1 U
b1 S
b1 '!
b0 }
1q
b1 *!
b1 B
b1 A
0,
0+
0L
0g
#50000000000
0!
#55000000000
1!
b1 )!
0T
b1 %!
b1 >
0(!
b1 Q
b1 =
b10000 $
b10000 #
b10000 H
1(
1'
1J
1Z
1\
1/!
10!
#60000000000
0!
#65000000000
1!
1[
0(
0'
0J
0Z
0\
0/!
00!
b1000 $
b1000 #
b1000 H
b0 *
b0 )
b0 K
1,
1+
1L
1g
#70000000000
0!
#75000000000
1!
b0 h
0[
b0 O
b0 U
b0 S
b0 '!
0q
b0 *!
b0 B
b0 A
b1001 $
b1001 #
b1001 H
1i
0g
#80000000000
0!
#85000000000
1!
b1010 $
b1010 #
b1010 H
0i
1k
b11000 *
b11000 )
b11000 K
#90000000000
0!
#95000000000
1!
b11000 l
b110000000000000000000 U
b110000000000000000000 *!
b110000000000000000000 B
b110000000000000000000 A
b1011 $
b1011 #
b1011 H
0k
1m
b1110 *
b1110 )
b1110 K
#100000000000
0!
#105000000000
1!
1V
b1110 n
1+!
b1110000110000000000000000000 U
1@
b1110000110000000000000000000 *!
b1110000110000000000000000000 B
1?
b1110000110000000000000000000 A
0,
0+
0L
0m
#110000000000
0!
#115000000000
1!
0V
b1110000110000000000000000000 8!
sACTIVE/1 2!
0+!
16!
0@
0?
#120000000000
0!
#125000000000
1!
b1 3!
14!
#130000000000
0!
#135000000000
1!
b11100001100000000000000000000 8!
11!
b0 3!
04!
14
13
#140000000000
0!
#145000000000
1!
b1 3!
15!
#150000000000
0!
#155000000000
1!
b1 9!
01!
b0 3!
05!
04
03
#160000000000
0!
#165000000000
1!
b1 3!
14!
#170000000000
0!
#175000000000
1!
b111000011000000000000000000000 8!
11!
b0 3!
04!
14
13
#180000000000
0!
#185000000000
1!
b1 3!
15!
#190000000000
0!
#195000000000
1!
b10 9!
01!
b0 3!
05!
04
03
#200000000000
0!
#205000000000
1!
b1 3!
14!
#210000000000
0!
#215000000000
1!
b1110000110000000000000000000000 8!
11!
b0 3!
04!
14
13
#220000000000
0!
#225000000000
1!
b1 3!
15!
#230000000000
0!
#235000000000
1!
b11 9!
01!
b0 3!
05!
04
03
#240000000000
0!
#245000000000
1!
b1 3!
14!
1.
1-
#250000000000
0!
#255000000000
1!
b11100001100000000000000000000000 8!
11!
b0 3!
10
04!
14
13
1/
#260000000000
0!
#265000000000
1!
b1 3!
15!
#270000000000
0!
#275000000000
1!
b100 9!
01!
b0 3!
b1 7!
05!
b1 D
04
b1 C
03
b1 ,!
b1 W
#280000000000
0!
#285000000000
1!
b1 3!
14!
#290000000000
0!
#295000000000
1!
b11000011000000000000000000000000 8!
11!
b0 3!
04!
14
13
#300000000000
0!
#305000000000
1!
b1 3!
15!
#310000000000
0!
#315000000000
1!
b101 9!
01!
b0 3!
b11 7!
05!
b11 D
04
b11 C
03
b11 ,!
b11 W
#320000000000
0!
#325000000000
1!
b1 3!
14!
0.
0-
#330000000000
0!
#335000000000
1!
b10000110000000000000000000000000 8!
11!
b0 3!
04!
14
13
#340000000000
0!
#345000000000
1!
b1 3!
15!
#350000000000
0!
#355000000000
1!
b110 9!
01!
b0 3!
b110 7!
05!
b110 D
04
b110 C
03
b110 ,!
b110 W
#360000000000
0!
#365000000000
1!
b1 3!
14!
#370000000000
0!
#375000000000
1!
b1100000000000000000000000000 8!
11!
b0 3!
00
04!
14
13
0/
#380000000000
0!
#385000000000
1!
b1 3!
15!
#390000000000
0!
#395000000000
1!
b111 9!
01!
b0 3!
b1100 7!
05!
b1100 D
04
b1100 C
03
b1100 ,!
b1100 W
#400000000000
0!
#405000000000
1!
b1 3!
14!
1.
1-
#410000000000
0!
#415000000000
1!
b11000000000000000000000000000 8!
11!
b0 3!
04!
14
13
#420000000000
0!
#425000000000
1!
b1 3!
15!
#430000000000
0!
#435000000000
1!
b1000 9!
01!
b0 3!
b11001 7!
05!
b11001 D
04
b11001 C
03
b11001 ,!
b11001 W
#440000000000
0!
#445000000000
1!
b1 3!
14!
#450000000000
0!
#455000000000
1!
b110000000000000000000000000000 8!
11!
b0 3!
04!
14
13
#460000000000
0!
#465000000000
1!
b1 3!
15!
#470000000000
0!
#475000000000
1!
b1001 9!
01!
b0 3!
b110011 7!
05!
b110011 D
04
b110011 C
03
b110011 ,!
b110011 W
#480000000000
0!
#485000000000
1!
b1 3!
14!
0.
0-
#490000000000
0!
#495000000000
1!
b1100000000000000000000000000000 8!
11!
b0 3!
04!
14
13
#500000000000
0!
#505000000000
1!
b1 3!
15!
#510000000000
0!
#515000000000
1!
b1010 9!
01!
b0 3!
b1100110 7!
05!
b1100110 D
04
b1100110 C
03
b1100110 ,!
b1100110 W
#520000000000
0!
#525000000000
1!
b1 3!
14!
#530000000000
0!
#535000000000
1!
b11000000000000000000000000000000 8!
11!
b0 3!
10
04!
14
13
1/
#540000000000
0!
#545000000000
1!
b1 3!
15!
#550000000000
0!
#555000000000
1!
b1011 9!
01!
b0 3!
b11001100 7!
05!
b11001100 D
04
b11001100 C
03
b11001100 ,!
b11001100 W
#560000000000
0!
#565000000000
1!
b1 3!
14!
1.
1-
#570000000000
0!
#575000000000
1!
b10000000000000000000000000000000 8!
11!
b0 3!
04!
14
13
#580000000000
0!
#585000000000
1!
b1 3!
15!
#590000000000
0!
#595000000000
1!
b1100 9!
01!
b0 3!
b110011001 7!
05!
b110011001 D
04
b110011001 C
03
b110011001 ,!
b110011001 W
#600000000000
0!
#605000000000
1!
b1 3!
14!
#610000000000
0!
#615000000000
1!
b0 8!
11!
b0 3!
00
04!
14
13
0/
#620000000000
0!
#625000000000
1!
b1 3!
15!
#630000000000
0!
#635000000000
1!
b0 3!
sDONE/2 2!
01!
b1100110011 7!
b1100110011 D
04
05!
b1100110011 C
03
b1100110011 ,!
b1100110011 W
#640000000000
0!
#645000000000
1!
1F
sIDLE/0 2!
06!
#650000000000
0!
#655000000000
1!
b0 9!
1G
0F
1.!
1Y
b10000 $
b10000 #
b10000 H
1(
1'
1J
1Z
1\
1/!
10!
#660000000000
0!
#665000000000
1!
1[
b1 ]
b1 I
b1 &
b1 %
0(
0'
0J
0Z
0\
0/!
00!
b1100 $
b1100 #
b1100 H
1(
1'
1J
1X
1_
1\
1-!
1b
1e
1E
#670000000000
0!
#675000000000
1!
0G
b110011 ]
b11 `
b110011 I
0.!
0Y
b110011 &
b110011 %
b1101 $
b1101 #
b1101 H
0X
0_
0\
0-!
0b
0e
0E
#680000000000
0!
#685000000000
1!
0[
1^
b11 I
b11 &
b11 %
b1110 $
b1110 #
b1110 H
#690000000000
0!
#695000000000
1!
1a
0^
b0 I
b0 &
b0 %
b1111 $
b1111 #
b1111 H
#700000000000
0!
#705000000000
1!
0a
1d
0(
0'
0J
b10000 $
b10000 #
b10000 H
1(
1'
1J
1Z
1\
1/!
10!
#710000000000
0!
#715000000000
1!
0d
1[
b0 ]
0(
0'
0J
0Z
0\
0/!
00!
b0 $
b0 #
b0 H
b111000 *
b111000 )
b111000 K
1,
1+
1L
1g
#720000000000
0!
#725000000000
1!
b111000 h
0[
1P
b111000 O
b1110000110000000000000111000 U
1~
1v
1z
1r
b111000 S
b111000 '!
b111 }
b1110000110000000000000111000 *!
b1110000110000000000000111000 B
b1110000110000000000000111000 A
b1 $
b1 #
b1 H
0g
b0 *
b0 )
b0 K
#730000000000
0!
#735000000000
1!
0P
b111 $!
0~
b111 {
0v
0z
0r
b111 <
b111 ;
b111000 M
b10 $
b10 #
b10 H
#740000000000
0!
#745000000000
1!
b11 $
b11 #
b11 H
#750000000000
0!
#755000000000
1!
0,
0+
0L
b100 $
b100 #
b100 H
b1 *
b1 )
b1 K
1,
1+
1L
1g
#760000000000
0!
#765000000000
1!
b1 h
1T
b1 O
1(!
b1110000110000000000000000001 U
b1 S
b1 '!
b0 }
1q
b1110000110000000000000000001 *!
b1110000110000000000000000001 B
b1110000110000000000000000001 A
0,
0+
0L
0g
#770000000000
0!
#775000000000
1!
0T
0(!
b10000 $
b10000 #
b10000 H
1(
1'
1J
1Z
1\
1/!
10!
#780000000000
0!
#785000000000
1!
1[
0(
0'
0J
0Z
0\
0/!
00!
b1000 $
b1000 #
b1000 H
b0 *
b0 )
b0 K
1,
1+
1L
1g
#790000000000
0!
#795000000000
1!
b0 h
0[
b0 O
b1110000110000000000000000000 U
b0 S
b0 '!
0q
b1110000110000000000000000000 *!
b1110000110000000000000000000 B
b1110000110000000000000000000 A
b1001 $
b1001 #
b1001 H
1i
0g
#800000000000
0!
#805000000000
1!
b1010 $
b1010 #
b1010 H
0i
1k
#810000000000
0!
#815000000000
1!
b0 l
b1110000000000000000000000000 U
b1110000000000000000000000000 *!
b1110000000000000000000000000 B
b1110000000000000000000000000 A
b1011 $
b1011 #
b1011 H
0k
1m
b1100110 *
b1100110 )
b1100110 K
#820000000000
0!
#825000000000
1!
1V
b1100110 n
1+!
b1100110000000000000000000000000 U
1@
b1100110000000000000000000000000 *!
b1100110000000000000000000000000 B
1?
b1100110000000000000000000000000 A
0,
0+
0L
0m
#830000000000
0!
#835000000000
1!
0V
b1100110000000000000000000000000 8!
sACTIVE/1 2!
b0 7!
16!
b0 D
0+!
b0 C
0@
0?
b0 ,!
b0 W
#840000000000
0!
#845000000000
1!
b1 3!
14!
0.
0-
#850000000000
0!
#855000000000
1!
b11001100000000000000000000000000 8!
11!
b0 3!
10
04!
14
13
1/
#860000000000
0!
#865000000000
1!
b1 3!
15!
#870000000000
0!
#875000000000
1!
b1 9!
01!
b0 3!
05!
04
03
#880000000000
0!
#885000000000
1!
b1 3!
14!
1.
1-
#890000000000
0!
#895000000000
1!
b10011000000000000000000000000000 8!
11!
b0 3!
04!
14
13
#900000000000
0!
#905000000000
1!
b1 3!
15!
#910000000000
0!
#915000000000
1!
b10 9!
01!
b0 3!
b1 7!
05!
b1 D
04
b1 C
03
b1 ,!
b1 W
#920000000000
0!
#925000000000
1!
b1 3!
14!
0.
0-
#930000000000
0!
#935000000000
1!
b110000000000000000000000000000 8!
11!
b0 3!
00
04!
14
13
0/
#940000000000
0!
#945000000000
1!
b1 3!
15!
#950000000000
0!
#955000000000
1!
b11 9!
01!
b0 3!
b10 7!
05!
b10 D
04
b10 C
03
b10 ,!
b10 W
#960000000000
0!
#965000000000
1!
b1 3!
14!
1.
1-
#970000000000
0!
#975000000000
1!
b1100000000000000000000000000000 8!
11!
b0 3!
04!
14
13
#980000000000
0!
#985000000000
1!
b1 3!
15!
#990000000000
0!
#995000000000
1!
b100 9!
01!
b0 3!
b101 7!
05!
b101 D
04
b101 C
03
b101 ,!
b101 W
#1000000000000
0!
#1005000000000
1!
b1 3!
14!
#1010000000000
0!
#1015000000000
1!
b11000000000000000000000000000000 8!
11!
b0 3!
10
04!
14
13
1/
#1020000000000
0!
#1025000000000
1!
b1 3!
15!
#1030000000000
0!
#1035000000000
1!
b101 9!
01!
b0 3!
b1011 7!
05!
b1011 D
04
b1011 C
03
b1011 ,!
b1011 W
#1040000000000
0!
#1045000000000
1!
b1 3!
14!
0.
0-
#1050000000000
0!
#1055000000000
1!
b10000000000000000000000000000000 8!
11!
b0 3!
04!
14
13
#1060000000000
0!
#1065000000000
1!
b1 3!
15!
#1070000000000
0!
#1075000000000
1!
b110 9!
01!
b0 3!
b10110 7!
05!
b10110 D
04
b10110 C
03
b10110 ,!
b10110 W
#1080000000000
0!
#1085000000000
1!
b1 3!
14!
1.
1-
#1090000000000
0!
#1095000000000
1!
b0 8!
11!
b0 3!
00
04!
14
13
0/
#1100000000000
0!
#1105000000000
1!
b1 3!
15!
#1110000000000
0!
#1115000000000
1!
b111 9!
01!
b0 3!
b101101 7!
05!
b101101 D
04
b101101 C
03
b101101 ,!
b101101 W
#1120000000000
0!
#1125000000000
1!
b1 3!
14!
0.
0-
#1130000000000
0!
#1135000000000
1!
b0 3!
11!
04!
14
13
#1140000000000
0!
#1145000000000
1!
b1 3!
15!
#1150000000000
0!
#1155000000000
1!
b0 3!
sDONE/2 2!
01!
b1011010 7!
b1011010 D
04
05!
b1011010 C
03
b1011010 ,!
b1011010 W
#1160000000000
0!
#1165000000000
1!
1F
sIDLE/0 2!
06!
#1170000000000
0!
#1175000000000
1!
b0 9!
1G
0F
1.!
1Y
b10000 $
b10000 #
b10000 H
1(
1'
1J
1Z
1\
1/!
10!
#1180000000000
0!
#1185000000000
1!
1[
b1 ]
b1 I
b1 &
b1 %
0(
0'
0J
0Z
0\
0/!
00!
b1100 $
b1100 #
b1100 H
1(
1'
1J
1X
1_
1\
1-!
1b
1e
1E
#1190000000000
0!
#1195000000000
1!
0G
b1011010 ]
b0 `
b1011010 I
0.!
0Y
b1011010 &
b1011010 %
b1101 $
b1101 #
b1101 H
0X
0_
0\
0-!
0b
0e
0E
#1200000000000
0!
#1205000000000
1!
0[
1^
b0 I
b0 &
b0 %
b1110 $
b1110 #
b1110 H
#1210000000000
0!
#1215000000000
1!
1a
0^
b1111 $
b1111 #
b1111 H
#1220000000000
0!
#1225000000000
1!
0a
1d
0(
0'
0J
b10000 $
b10000 #
b10000 H
1(
1'
1J
1Z
1\
1/!
10!
#1230000000000
0!
#1235000000000
1!
0d
1[
b0 ]
0(
0'
0J
0Z
0\
0/!
00!
b0 $
b0 #
b0 H
b11111000 *
b11111000 )
b11111000 K
1,
1+
1L
1g
#1240000000000
0!
#1245000000000
1!
b11111000 h
0[
1P
b11111000 O
b1100110000000000000000011111000 U
1~
1v
1z
1r
b11111000 S
b11111000 '!
b11111 }
b1100110000000000000000011111000 *!
b1100110000000000000000011111000 B
b1100110000000000000000011111000 A
b1 $
b1 #
b1 H
0g
b0 *
b0 )
b0 K
#1250000000000
0!
#1255000000000
1!
0P
b11111 $!
0~
b11111 {
0v
0z
0r
b11111 <
b11111 ;
b11111000 M
b10 $
b10 #
b10 H
#1260000000000
0!
#1265000000000
1!
b11 $
b11 #
b11 H
#1270000000000
0!
#1275000000000
1!
0,
0+
0L
b100 $
b100 #
b100 H
b1 *
b1 )
b1 K
1,
1+
1L
1g
#1280000000000
0!
#1285000000000
1!
b1 h
1T
b1 O
1(!
b1100110000000000000000000000001 U
b1 S
b1 '!
b0 }
1q
b1100110000000000000000000000001 *!
b1100110000000000000000000000001 B
b1100110000000000000000000000001 A
0,
0+
0L
0g
#1290000000000
0!
#1295000000000
1!
0T
0(!
b10000 $
b10000 #
b10000 H
1(
1'
1J
1Z
1\
1/!
10!
#1300000000000
0!
#1305000000000
1!
1[
0(
0'
0J
0Z
0\
0/!
00!
b1000 $
b1000 #
b1000 H
b11101111 *
b11101111 )
b11101111 K
1,
1+
1L
1g
#1310000000000
0!
#1315000000000
1!
b11101111 h
0[
b11101111 O
b1100110000000000000000011101111 U
b11101111 S
b11101 }
1u
1y
b11101111 '!
b1100110000000000000000011101111 *!
b1100110000000000000000011101111 B
b1100110000000000000000011101111 A
b1001 $
b1001 #
b1001 H
1i
0g
b10111110 *
b10111110 )
b10111110 K
#1320000000000
0!
#1325000000000
1!
b10111110 j
b1100110000000001011111011101111 U
b1100110000000001011111011101111 *!
b1100110000000001011111011101111 B
b1100110000000001011111011101111 A
b1010 $
b1010 #
b1010 H
0i
1k
b10101101 *
b10101101 )
b10101101 K
#1330000000000
0!
#1335000000000
1!
b10101101 l
b1100110101011011011111011101111 U
b1100110101011011011111011101111 *!
b1100110101011011011111011101111 B
b1100110101011011011111011101111 A
b1011 $
b1011 #
b1011 H
0k
1m
b11011110 *
b11011110 )
b11011110 K
#1340000000000
0!
#1345000000000
1!
1V
b11011110 n
1+!
b11011110101011011011111011101111 U
1@
b11011110101011011011111011101111 *!
b11011110101011011011111011101111 B
1?
b11011110101011011011111011101111 A
0,
0+
0L
0m
#1350000000000
0!
#1355000000000
1!
0V
b11011110101011011011111011101111 8!
sACTIVE/1 2!
b0 7!
16!
10
b0 D
0+!
b0 C
0@
1/
0?
b0 ,!
b0 W
#1360000000000
0!
#1365000000000
1!
b1 3!
14!
1.
1-
#1370000000000
0!
#1375000000000
1!
b10111101010110110111110111011110 8!
11!
b0 3!
04!
14
13
#1380000000000
0!
#1385000000000
1!
b1 3!
15!
#1390000000000
0!
#1395000000000
1!
b1 9!
01!
b0 3!
b1 7!
05!
b1 D
04
b1 C
03
b1 ,!
b1 W
#1400000000000
0!
#1405000000000
1!
b1 3!
14!
#1410000000000
0!
#1415000000000
1!
b1111010101101101111101110111100 8!
11!
b0 3!
00
04!
14
13
0/
#1420000000000
0!
#1425000000000
1!
b1 3!
15!
#1430000000000
0!
#1435000000000
1!
b10 9!
01!
b0 3!
b11 7!
05!
b11 D
04
b11 C
03
b11 ,!
b11 W
#1440000000000
0!
#1445000000000
1!
b1 3!
14!
0.
0-
#1450000000000
0!
#1455000000000
1!
b11110101011011011111011101111000 8!
11!
b0 3!
10
04!
14
13
1/
#1460000000000
0!
#1465000000000
1!
b1 3!
15!
#1470000000000
0!
#1475000000000
1!
b11 9!
01!
b0 3!
b110 7!
05!
b110 D
04
b110 C
03
b110 ,!
b110 W
#1480000000000
0!
#1485000000000
1!
b1 3!
14!
#1490000000000
0!
#1495000000000
1!
b11101010110110111110111011110000 8!
11!
b0 3!
04!
14
13
#1500000000000
0!
#1505000000000
1!
b1 3!
15!
#1510000000000
0!
#1515000000000
1!
b100 9!
01!
b0 3!
b1100 7!
05!
b1100 D
04
b1100 C
03
b1100 ,!
b1100 W
#1520000000000
0!
#1525000000000
1!
b1 3!
14!
#1530000000000
0!
#1535000000000
1!
b11010101101101111101110111100000 8!
11!
b0 3!
04!
14
13
#1540000000000
0!
#1545000000000
1!
b1 3!
15!
#1550000000000
0!
#1555000000000
1!
b101 9!
01!
b0 3!
b11000 7!
05!
b11000 D
04
b11000 C
03
b11000 ,!
b11000 W
#1560000000000
0!
#1565000000000
1!
b1 3!
14!
#1570000000000
0!
#1575000000000
1!
b10101011011011111011101111000000 8!
11!
b0 3!
04!
14
13
#1580000000000
0!
#1585000000000
1!
b1 3!
15!
#1590000000000
0!
#1595000000000
1!
b110 9!
01!
b0 3!
b110000 7!
05!
b110000 D
04
b110000 C
03
b110000 ,!
b110000 W
#1600000000000
0!
#1605000000000
1!
b1 3!
14!
#1610000000000
0!
#1615000000000
1!
b1010110110111110111011110000000 8!
11!
b0 3!
00
04!
14
13
0/
#1620000000000
0!
#1625000000000
1!
b1 3!
15!
#1630000000000
0!
#1635000000000
1!
b111 9!
01!
b0 3!
b1100000 7!
05!
b1100000 D
04
b1100000 C
03
b1100000 ,!
b1100000 W
#1640000000000
0!
#1645000000000
1!
b1 3!
14!
#1650000000000
0!
#1655000000000
1!
b10101101101111101110111100000000 8!
11!
b0 3!
10
04!
14
13
1/
#1660000000000
0!
#1665000000000
1!
b1 3!
15!
#1670000000000
0!
#1675000000000
1!
b1000 9!
01!
b0 3!
b11000000 7!
05!
b11000000 D
04
b11000000 C
03
b11000000 ,!
b11000000 W
#1680000000000
0!
#1685000000000
1!
b1 3!
14!
1.
1-
#1690000000000
0!
#1695000000000
1!
b1011011011111011101111000000000 8!
11!
b0 3!
00
04!
14
13
0/
#1700000000000
0!
#1705000000000
1!
b1 3!
15!
#1710000000000
0!
#1715000000000
1!
b1001 9!
01!
b0 3!
b110000001 7!
05!
b110000001 D
04
b110000001 C
03
b110000001 ,!
b110000001 W
