spi_div_test.vcd
$comment Generated by Amaranth $end
$date 2025-07-25 11:53:37.823702 $end
$timescale 1 fs $end
$scope module bench $end
$scope module top $end
$var wire 1 ! clk $end
$var wire 1 " rst $end
$var wire 5 # bus__addr $end
$var wire 5 $ bus__addr$3 $end
$var wire 8 % bus__r_data $end
$var wire 8 & bus__r_data$5 $end
$var wire 1 ' bus__r_stb $end
$var wire 1 ( bus__r_stb$7 $end
$var wire 8 ) bus__w_data $end
$var wire 8 * bus__w_data$9 $end
$var wire 1 + bus__w_stb $end
$var wire 1 , bus__w_stb$11 $end
$var wire 1 - spi__cipo__i $end
$var wire 1 . spi_pins__cipo__i $end
$var wire 1 / spi_pins__copi__o $end
$var wire 1 0 spi__copi__o $end
$var wire 1 1 spi_pins__csn__o $end
$var wire 1 2 spi__csn__o $end
$var wire 1 3 spi_pins__sck__o $end
$var wire 1 4 spi__sck__o $end
$var wire 1 5 sck_idle $end
$var wire 1 6 data $end
$var wire 1 7 sck_edge $end
$var wire 1 8 data$23 $end
$var wire 1 9 cs $end
$var wire 1 : data$25 $end
$var wire 5 ; width $end
$var wire 5 < data$27 $end
$var wire 8 = divider $end
$var wire 8 > data$29 $end
$var wire 1 ? start_xfer $end
$var wire 1 @ w_stb $end
$var wire 32 A d_send $end
$var wire 32 B w_data $end
$var wire 32 C r_data $end
$var wire 32 D d_recv $end
$var wire 1 E r_stb $end
$var wire 1 F done $end
$var wire 1 G r_data$38 $end
$scope module bridge $end
$var wire 1 ! clk $end
$var wire 1 " rst $end
$var wire 5 # bus__addr$1 $end
$var wire 8 & bus__r_data $end
$var wire 1 ' bus__r_stb$5 $end
$var wire 8 ) bus__w_data$7 $end
$var wire 1 + bus__w_stb$9 $end
$var wire 1 6 data $end
$var wire 1 8 data$17 $end
$var wire 1 : data$18 $end
$var wire 5 < data$19 $end
$var wire 8 > data$24 $end
$var wire 1 @ w_stb $end
$var wire 32 B w_data $end
$var wire 32 C r_data $end
$var wire 1 E r_stb $end
$var wire 1 G r_data$35 $end
$var wire 5 H bus__addr $end
$var wire 8 I bus__r_data$3 $end
$var wire 1 J bus__r_stb $end
$var wire 8 K bus__w_data $end
$var wire 1 L bus__w_stb $end
$var wire 8 M element__r_data $end
$var wire 1 N element__r_stb $end
$var wire 8 O element__w_data $end
$var wire 1 P element__w_stb $end
$var wire 8 Q element__r_data$20 $end
$var wire 1 R element__r_stb$21 $end
$var wire 8 S element__w_data$22 $end
$var wire 1 T element__w_stb$23 $end
$var wire 32 U element__w_data$25 $end
$var wire 1 V element__w_stb$26 $end
$var wire 32 W element__r_data$29 $end
$var wire 1 X element__r_stb$30 $end
$var wire 1 Y element__r_data$33 $end
$var wire 1 Z element__r_stb$34 $end
$scope module config $end
$var wire 1 ! clk $end
$var wire 1 " rst $end
$var wire 1 6 data $end
$var wire 1 8 data$23 $end
$var wire 1 : data$24 $end
$var wire 5 < data$25 $end
$var wire 8 M element__r_data $end
$var wire 1 N element__r_stb $end
$var wire 8 O element__w_data $end
$var wire 1 P element__w_stb $end
$var wire 1 o port__r_data $end
$var wire 1 p port__r_stb $end
$var wire 1 q port__w_data $end
$var wire 1 r port__w_stb $end
$var wire 1 s port__r_data$8 $end
$var wire 1 t port__r_stb$9 $end
$var wire 1 u port__w_data$10 $end
$var wire 1 v port__w_stb$11 $end
$var wire 1 w port__r_data$12 $end
$var wire 1 x port__r_stb$13 $end
$var wire 1 y port__w_data$14 $end
$var wire 1 z port__w_stb$15 $end
$var wire 5 { port__r_data$16 $end
$var wire 1 | port__r_stb$17 $end
$var wire 5 } port__w_data$18 $end
$var wire 1 ~ port__w_stb$19 $end
$scope module chip_select $end
$var wire 1 ! clk $end
$var wire 1 " rst $end
$var wire 1 : data $end
$var wire 1 w port__r_data $end
$var wire 1 y port__w_data $end
$var wire 1 z port__w_stb $end
$var wire 1 #! _storage $end
$upscope $end
$scope module sck_edge $end
$var wire 1 ! clk $end
$var wire 1 " rst $end
$var wire 1 8 data $end
$var wire 1 s port__r_data $end
$var wire 1 u port__w_data $end
$var wire 1 v port__w_stb $end
$var wire 1 "! _storage $end
$upscope $end
$scope module sck_idle $end
$var wire 1 ! clk $end
$var wire 1 " rst $end
$var wire 1 6 data $end
$var wire 1 o port__r_data $end
$var wire 1 q port__w_data $end
$var wire 1 r port__w_stb $end
$var wire 1 !! _storage $end
$upscope $end
$scope module width $end
$var wire 1 ! clk $end
$var wire 1 " rst $end
$var wire 5 < data $end
$var wire 5 { port__r_data $end
$var wire 5 } port__w_data $end
$var wire 1 ~ port__w_stb $end
$var wire 5 $! _storage $end
$upscope $end
$upscope $end
$scope module divider $end
$var wire 1 ! clk $end
$var wire 1 " rst $end
$var wire 8 > data $end
$var wire 8 Q element__r_data $end
$var wire 1 R element__r_stb $end
$var wire 8 S element__w_data $end
$var wire 1 T element__w_stb $end
$var wire 8 %! port__r_data $end
$var wire 1 &! port__r_stb $end
$var wire 8 '! port__w_data $end
$var wire 1 (! port__w_stb $end
$scope module val $end
$var wire 1 ! clk $end
$var wire 1 " rst $end
$var wire 8 > data $end
$var wire 8 %! port__r_data $end
$var wire 8 '! port__w_data $end
$var wire 1 (! port__w_stb $end
$var wire 8 )! _storage $end
$upscope $end
$upscope $end
$scope module mux $end
$var wire 1 ! clk $end
$var wire 1 " rst $end
$var wire 5 H bus__addr $end
$var wire 8 I bus__r_data $end
$var wire 1 J bus__r_stb $end
$var wire 8 K bus__w_data $end
$var wire 1 L bus__w_stb $end
$var wire 8 M element__r_data $end
$var wire 1 N element__r_stb $end
$var wire 8 O element__w_data $end
$var wire 1 P element__w_stb $end
$var wire 8 Q element__r_data$10 $end
$var wire 1 R element__r_stb$9 $end
$var wire 8 S element__w_data$39 $end
$var wire 1 T element__w_stb$25 $end
$var wire 32 U element__w_data$40 $end
$var wire 1 V element__w_stb$34 $end
$var wire 32 W element__r_data$12 $end
$var wire 1 X element__r_stb$11 $end
$var wire 1 Y element__r_data$14 $end
$var wire 1 Z element__r_stb$13 $end
$var wire 1 [ r_shadow__0__r_en $end
$var wire 1 \ r_shadow__0__w_en $end
$var wire 8 ] r_shadow__0__data $end
$var wire 1 ^ r_shadow__1__r_en $end
$var wire 1 _ r_shadow__1__w_en $end
$var wire 8 ` r_shadow__1__data $end
$var wire 1 a r_shadow__2__r_en $end
$var wire 1 b r_shadow__2__w_en $end
$var wire 8 c r_shadow__2__data $end
$var wire 1 d r_shadow__3__r_en $end
$var wire 1 e r_shadow__3__w_en $end
$var wire 8 f r_shadow__3__data $end
$var wire 1 g w_shadow__0__w_en $end
$var wire 8 h w_shadow__0__data $end
$var wire 1 i w_shadow__1__w_en $end
$var wire 8 j w_shadow__1__data $end
$var wire 1 k w_shadow__2__w_en $end
$var wire 8 l w_shadow__2__data $end
$var wire 1 m w_shadow__3__w_en $end
$var wire 8 n w_shadow__3__data $end
$upscope $end
$scope module receive_data $end
$var wire 32 C r_data $end
$var wire 1 E r_stb $end
$var wire 32 W element__r_data $end
$var wire 1 X element__r_stb $end
$var wire 32 ,! port__r_data $end
$var wire 1 -! port__r_stb $end
$scope module val $end
$var wire 32 C r_data $end
$var wire 1 E r_stb $end
$var wire 32 ,! port__r_data $end
$var wire 1 -! port__r_stb $end
$upscope $end
$upscope $end
$scope module send_data $end
$var wire 1 @ w_stb $end
$var wire 32 B w_data $end
$var wire 32 U element__w_data $end
$var wire 1 V element__w_stb $end
$var wire 32 *! port__w_data $end
$var wire 1 +! port__w_stb $end
$scope module val $end
$var wire 1 @ w_stb $end
$var wire 32 B w_data $end
$var wire 32 *! port__w_data $end
$var wire 1 +! port__w_stb $end
$upscope $end
$upscope $end
$scope module status $end
$var wire 1 G r_data $end
$var wire 1 Y element__r_data $end
$var wire 1 Z element__r_stb $end
$var wire 1 .! port__r_data $end
$var wire 1 /! port__r_stb $end
$scope module recv_full $end
$var wire 1 G r_data $end
$var wire 1 .! port__r_data $end
$var wire 1 /! port__r_stb $end
$var wire 1 0! r_stb $end
$upscope $end
$upscope $end
$upscope $end
$scope module spi $end
$var wire 1 ! clk $end
$var wire 1 " rst $end
$var wire 1 - spi__cipo__i $end
$var wire 1 0 spi__copi__o $end
$var wire 1 2 spi__csn__o $end
$var wire 1 4 spi__sck__o $end
$var wire 1 5 sck_idle $end
$var wire 1 7 sck_edge $end
$var wire 1 9 cs $end
$var wire 5 ; width $end
$var wire 8 = divider $end
$var wire 1 ? start_xfer $end
$var wire 32 A d_send $end
$var wire 32 D d_recv $end
$var wire 1 F done $end
$var wire 1 1! sck $end
$var string 1 2! fsm_state $end
$var wire 8 3! div_ctr $end
$var wire 1 4! setup $end
$var wire 1 5! latch $end
$var wire 1 6! busy $end
$var wire 32 7! sr_i $end
$var wire 32 8! sr_o $end
$var wire 6 9! bit_count $end
$upscope $end
$upscope $end
$upscope $end
$enddefinitions $end
#0
$dumpvars
0!
0"
b0 #
b0 $
b0 %
b0 &
0'
0(
b111000 )
b111000 *
1+
1,
0-
0.
0/
00
11
12
03
04
05
06
07
08
09
0:
b0 ;
b0 <
b0 =
b0 >
0?
0@
b0 A
b0 B
b0 C
b0 D
0E
0F
0G
b0 H
b0 I
0J
b111000 K
1L
b0 M
0N
b0 O
0P
b0 Q
0R
b0 S
0T
b0 U
0V
b0 W
0X
0Y
0Z
0[
0\
b0 ]
0^
0_
b0 `
0a
0b
b0 c
0d
0e
b0 f
1g
b0 h
0i
b0 j
0k
b0 l
0m
b0 n
0o
0p
0q
0r
0s
0t
0u
0v
0w
0x
0y
0z
b0 {
0|
b0 }
0~
0!!
0"!
0#!
b0 $!
b0 %!
0&!
b0 '!
0(!
b0 )!
b0 *!
0+!
b0 ,!
0-!
0.!
0/!
00!
01!
sIDLE/0 2!
b0 3!
04!
05!
06!
b0 7!
b0 8!
b0 9!
$end
#5000000000
1!
b111000 h
1P
1v
b111000 O
b111000 U
1z
1r
1~
b111000 S
b111 }
b111000 *!
b111000 '!
b111000 B
b111000 A
b1 $
b1 #
b1 H
0g
b0 *
b0 )
b0 K
#10000000000
0!
#15000000000
1!
0P
b111 $!
0v
b111 {
b111 <
0z
0r
0~
b111000 M
b111 ;
b10 $
b10 #
b10 H
#20000000000
0!
#25000000000
1!
b11 $
b11 #
b11 H
#30000000000
0!
#35000000000
1!
0,
0+
0L
b100 $
b100 #
b100 H
b1101 *
b1101 )
b1101 K
1,
1+
1L
1g
#40000000000
0!
#45000000000
1!
1T
b1101 h
b1101 U
b1101 O
b1101 S
1(!
b1 }
1q
b1101 '!
b1101 *!
1y
b1101 B
b1101 A
0,
0+
0L
0g
#50000000000
0!
#55000000000
1!
0T
b1101 )!
b1101 %!
0(!
b1101 >
b1101 =
b1101 Q
b10000 $
b10000 #
b10000 H
1(
1'
1J
1Z
1/!
1\
10!
#60000000000
0!
#65000000000
1!
1[
0(
0'
0J
0Z
0/!
0\
00!
b1000 $
b1000 #
b1000 H
b0 *
b0 )
b0 K
1,
1+
1L
1g
#70000000000
0!
#75000000000
1!
0[
b0 h
b0 U
b0 O
b0 S
b0 }
0q
b0 '!
b0 *!
0y
b0 B
b0 A
b1001 $
b1001 #
b1001 H
0g
1i
#80000000000
0!
#85000000000
1!
b1010 $
b1010 #
b1010 H
0i
1k
#90000000000
0!
#95000000000
1!
b1011 $
b1011 #
b1011 H
1m
0k
b1110011 *
b1110011 )
b1110011 K
#100000000000
0!
#105000000000
1!
1V
b1110011 n
b1110011000000000000000000000000 U
1+!
b1110011000000000000000000000000 *!
1@
b1110011000000000000000000000000 B
1?
b1110011000000000000000000000000 A
0,
0+
0L
0m
#110000000000
0!
#115000000000
1!
0V
b1110011000000000000000000000000 8!
sACTIVE/1 2!
16!
0+!
0@
0?
#120000000000
0!
#125000000000
1!
b1 3!
#130000000000
0!
#135000000000
1!
b10 3!
#140000000000
0!
#145000000000
1!
b11 3!
#150000000000
0!
#155000000000
1!
b100 3!
#160000000000
0!
#165000000000
1!
b101 3!
#170000000000
0!
#175000000000
1!
b110 3!
#180000000000
0!
#185000000000
1!
b111 3!
#190000000000
0!
#195000000000
1!
b1000 3!
#200000000000
0!
#205000000000
1!
b1001 3!
#210000000000
0!
#215000000000
1!
b1010 3!
#220000000000
0!
#225000000000
1!
b1011 3!
#230000000000
0!
#235000000000
1!
b1100 3!
#240000000000
0!
#245000000000
1!
b1101 3!
14!
#250000000000
0!
#255000000000
1!
b11100110000000000000000000000000 8!
b0 3!
11!
10
14
04!
1/
13
#260000000000
0!
#265000000000
1!
b1 3!
#270000000000
0!
#275000000000
1!
b10 3!
#280000000000
0!
#285000000000
1!
b11 3!
#290000000000
0!
#295000000000
1!
b100 3!
#300000000000
0!
#305000000000
1!
b101 3!
#310000000000
0!
#315000000000
1!
b110 3!
#320000000000
0!
#325000000000
1!
b111 3!
#330000000000
0!
#335000000000
1!
b1000 3!
#340000000000
0!
#345000000000
1!
b1001 3!
#350000000000
0!
#355000000000
1!
b1010 3!
#360000000000
0!
#365000000000
1!
b1011 3!
#370000000000
0!
#375000000000
1!
b1100 3!
#380000000000
0!
#385000000000
1!
b1101 3!
15!
#390000000000
0!
#395000000000
1!
b1 9!
b0 3!
01!
05!
04
03
#400000000000
0!
#405000000000
1!
b1 3!
#410000000000
0!
#415000000000
1!
b10 3!
#420000000000
0!
#425000000000
1!
b11 3!
#430000000000
0!
#435000000000
1!
b100 3!
#440000000000
0!
#445000000000
1!
b101 3!
#450000000000
0!
#455000000000
1!
b110 3!
#460000000000
0!
#465000000000
1!
b111 3!
#470000000000
0!
#475000000000
1!
b1000 3!
#480000000000
0!
#485000000000
1!
b1001 3!
#490000000000
0!
#495000000000
1!
b1010 3!
#500000000000
0!
#505000000000
1!
b1011 3!
#510000000000
0!
#515000000000
1!
b1100 3!
#520000000000
0!
#525000000000
1!
b1101 3!
14!
#530000000000
0!
#535000000000
1!
b11001100000000000000000000000000 8!
b0 3!
11!
14
04!
13
#540000000000
0!
#545000000000
1!
b1 3!
#550000000000
0!
#555000000000
1!
b10 3!
#560000000000
0!
#565000000000
1!
b11 3!
#570000000000
0!
#575000000000
1!
b100 3!
#580000000000
0!
#585000000000
1!
b101 3!
#590000000000
0!
#595000000000
1!
b110 3!
#600000000000
0!
#605000000000
1!
b111 3!
#610000000000
0!
#615000000000
1!
b1000 3!
#620000000000
0!
#625000000000
1!
b1001 3!
#630000000000
0!
#635000000000
1!
b1010 3!
#640000000000
0!
#645000000000
1!
b1011 3!
#650000000000
0!
#655000000000
1!
b1100 3!
#660000000000
0!
#665000000000
1!
b1101 3!
15!
#670000000000
0!
#675000000000
1!
b10 9!
b0 3!
01!
05!
04
03
#680000000000
0!
#685000000000
1!
b1 3!
#690000000000
0!
#695000000000
1!
b10 3!
#700000000000
0!
#705000000000
1!
b11 3!
#710000000000
0!
#715000000000
1!
b100 3!
#720000000000
0!
#725000000000
1!
b101 3!
#730000000000
0!
#735000000000
1!
b110 3!
#740000000000
0!
#745000000000
1!
b111 3!
#750000000000
0!
#755000000000
1!
b1000 3!
#760000000000
0!
#765000000000
1!
b1001 3!
#770000000000
0!
#775000000000
1!
b1010 3!
#780000000000
0!
#785000000000
1!
b1011 3!
#790000000000
0!
#795000000000
1!
b1100 3!
#800000000000
0!
#805000000000
1!
b1101 3!
14!
#810000000000
0!
#815000000000
1!
b10011000000000000000000000000000 8!
b0 3!
11!
14
04!
13
#820000000000
0!
#825000000000
1!
b1 3!
#830000000000
0!
#835000000000
1!
b10 3!
#840000000000
0!
#845000000000
1!
b11 3!
#850000000000
0!
#855000000000
1!
b100 3!
#860000000000
0!
#865000000000
1!
b101 3!
#870000000000
0!
#875000000000
1!
b110 3!
#880000000000
0!
#885000000000
1!
b111 3!
#890000000000
0!
#895000000000
1!
b1000 3!
#900000000000
0!
#905000000000
1!
b1001 3!
#910000000000
0!
#915000000000
1!
b1010 3!
#920000000000
0!
#925000000000
1!
b1011 3!
#930000000000
0!
#935000000000
1!
b1100 3!
#940000000000
0!
#945000000000
1!
b1101 3!
15!
#950000000000
0!
#955000000000
1!
b11 9!
b0 3!
01!
05!
04
03
#960000000000
0!
#965000000000
1!
b1 3!
#970000000000
0!
#975000000000
1!
b10 3!
#980000000000
0!
#985000000000
1!
b11 3!
#990000000000
0!
#995000000000
1!
b100 3!
#1000000000000
0!
#1005000000000
1!
b101 3!
#1010000000000
0!
#1015000000000
1!
b110 3!
#1020000000000
0!
#1025000000000
1!
b111 3!
#1030000000000
0!
#1035000000000
1!
b1000 3!
#1040000000000
0!
#1045000000000
1!
b1001 3!
#1050000000000
0!
#1055000000000
1!
b1010 3!
#1060000000000
0!
#1065000000000
1!
b1011 3!
#1070000000000
0!
#1075000000000
1!
b1100 3!
#1080000000000
0!
#1085000000000
1!
b1101 3!
14!
#1090000000000
0!
#1095000000000
1!
b110000000000000000000000000000 8!
b0 3!
11!
00
14
04!
0/
13
#1100000000000
0!
#1105000000000
1!
b1 3!
#1110000000000
0!
#1115000000000
1!
b10 3!
#1120000000000
0!
#1125000000000
1!
b11 3!
#1130000000000
0!
#1135000000000
1!
b100 3!
#1140000000000
0!
#1145000000000
1!
b101 3!
#1150000000000
0!
#1155000000000
1!
b110 3!
#1160000000000
0!
#1165000000000
1!
b111 3!
#1170000000000
0!
#1175000000000
1!
b1000 3!
#1180000000000
0!
#1185000000000
1!
b1001 3!
#1190000000000
0!
#1195000000000
1!
b1010 3!
#1200000000000
0!
#1205000000000
1!
b1011 3!
#1210000000000
0!
#1215000000000
1!
b1100 3!
#1220000000000
0!
#1225000000000
1!
b1101 3!
15!
#1230000000000
0!
#1235000000000
1!
b100 9!
b0 3!
01!
05!
04
03
#1240000000000
0!
#1245000000000
1!
b1 3!
#1250000000000
0!
#1255000000000
1!
b10 3!
#1260000000000
0!
#1265000000000
1!
b11 3!
#1270000000000
0!
#1275000000000
1!
b100 3!
#1280000000000
0!
#1285000000000
1!
b101 3!
#1290000000000
0!
#1295000000000
1!
b110 3!
#1300000000000
0!
#1305000000000
1!
b111 3!
#1310000000000
0!
#1315000000000
1!
b1000 3!
#1320000000000
0!
#1325000000000
1!
b1001 3!
#1330000000000
0!
#1335000000000
1!
b1010 3!
#1340000000000
0!
#1345000000000
1!
b1011 3!
#1350000000000
0!
#1355000000000
1!
b1100 3!
#1360000000000
0!
#1365000000000
1!
b1101 3!
14!
#1370000000000
0!
#1375000000000
1!
b1100000000000000000000000000000 8!
b0 3!
11!
14
04!
13
#1380000000000
0!
#1385000000000
1!
b1 3!
#1390000000000
0!
#1395000000000
1!
b10 3!
#1400000000000
0!
#1405000000000
1!
b11 3!
#1410000000000
0!
#1415000000000
1!
b100 3!
#1420000000000
0!
#1425000000000
1!
b101 3!
#1430000000000
0!
#1435000000000
1!
b110 3!
#1440000000000
0!
#1445000000000
1!
b111 3!
#1450000000000
0!
#1455000000000
1!
b1000 3!
#1460000000000
0!
#1465000000000
1!
b1001 3!
#1470000000000
0!
#1475000000000
1!
b1010 3!
#1480000000000
0!
#1485000000000
1!
b1011 3!
#1490000000000
0!
#1495000000000
1!
b1100 3!
#1500000000000
0!
#1505000000000
1!
b1101 3!
15!
#1510000000000
0!
#1515000000000
1!
b101 9!
b0 3!
01!
05!
04
03
#1520000000000
0!
#1525000000000
1!
b1 3!
#1530000000000
0!
#1535000000000
1!
b10 3!
#1540000000000
0!
#1545000000000
1!
b11 3!
#1550000000000
0!
#1555000000000
1!
b100 3!
#1560000000000
0!
#1565000000000
1!
b101 3!
#1570000000000
0!
#1575000000000
1!
b110 3!
#1580000000000
0!
#1585000000000
1!
b111 3!
#1590000000000
0!
#1595000000000
1!
b1000 3!
#1600000000000
0!
#1605000000000
1!
b1001 3!
#1610000000000
0!
#1615000000000
1!
b1010 3!
#1620000000000
0!
#1625000000000
1!
b1011 3!
#1630000000000
0!
#1635000000000
1!
b1100 3!
#1640000000000
0!
#1645000000000
1!
b1101 3!
14!
#1650000000000
0!
#1655000000000
1!
b11000000000000000000000000000000 8!
b0 3!
11!
10
14
04!
1/
13
#1660000000000
0!
#1665000000000
1!
b1 3!
#1670000000000
0!
#1675000000000
1!
b10 3!
#1680000000000
0!
#1685000000000
1!
b11 3!
#1690000000000
0!
#1695000000000
1!
b100 3!
#1700000000000
0!
#1705000000000
1!
b101 3!
#1710000000000
0!
#1715000000000
1!
b110 3!
#1720000000000
0!
#1725000000000
1!
b111 3!
#1730000000000
0!
#1735000000000
1!
b1000 3!
#1740000000000
0!
#1745000000000
1!
b1001 3!
#1750000000000
0!
#1755000000000
1!
b1010 3!
#1760000000000
0!
#1765000000000
1!
b1011 3!
#1770000000000
0!
#1775000000000
1!
b1100 3!
#1780000000000
0!
#1785000000000
1!
b1101 3!
15!
#1790000000000
0!
#1795000000000
1!
b110 9!
b0 3!
01!
05!
04
03
#1800000000000
0!
#1805000000000
1!
b1 3!
#1810000000000
0!
#1815000000000
1!
b10 3!
#1820000000000
0!
#1825000000000
1!
b11 3!
#1830000000000
0!
#1835000000000
1!
b100 3!
#1840000000000
0!
#1845000000000
1!
b101 3!
#1850000000000
0!
#1855000000000
1!
b110 3!
#1860000000000
0!
#1865000000000
1!
b111 3!
#1870000000000
0!
#1875000000000
1!
b1000 3!
#1880000000000
0!
#1885000000000
1!
b1001 3!
#1890000000000
0!
#1895000000000
1!
b1010 3!
#1900000000000
0!
#1905000000000
1!
b1011 3!
#1910000000000
0!
#1915000000000
1!
b1100 3!
#1920000000000
0!
#1925000000000
1!
b1101 3!
14!
#1930000000000
0!
#1935000000000
1!
b10000000000000000000000000000000 8!
b0 3!
11!
14
04!
13
#1940000000000
0!
#1945000000000
1!
b1 3!
#1950000000000
0!
#1955000000000
1!
b10 3!
#1960000000000
0!
#1965000000000
1!
b11 3!
#1970000000000
0!
#1975000000000
1!
b100 3!
#1980000000000
0!
#1985000000000
1!
b101 3!
#1990000000000
0!
#1995000000000
1!
b110 3!
#2000000000000
0!
#2005000000000
1!
b111 3!
#2010000000000
0!
#2015000000000
1!
b1000 3!
#2020000000000
0!
#2025000000000
1!
b1001 3!
#2030000000000
0!
#2035000000000
1!
b1010 3!
#2040000000000
0!
#2045000000000
1!
b1011 3!
#2050000000000
0!
#2055000000000
1!
b1100 3!
#2060000000000
0!
#2065000000000
1!
b1101 3!
15!
#2070000000000
0!
#2075000000000
1!
b111 9!
b0 3!
01!
05!
04
03
#2080000000000
0!
#2085000000000
1!
b1 3!
#2090000000000
0!
#2095000000000
1!
b10 3!
#2100000000000
0!
#2105000000000
1!
b11 3!
#2110000000000
0!
#2115000000000
1!
b100 3!
#2120000000000
0!
#2125000000000
1!
b101 3!
#2130000000000
0!
#2135000000000
1!
b110 3!
#2140000000000
0!
#2145000000000
1!
b111 3!
#2150000000000
0!
#2155000000000
1!
b1000 3!
#2160000000000
0!
#2165000000000
1!
b1001 3!
#2170000000000
0!
#2175000000000
1!
b1010 3!
#2180000000000
0!
#2185000000000
1!
b1011 3!
#2190000000000
0!
#2195000000000
1!
b1100 3!
#2200000000000
0!
#2205000000000
1!
b1101 3!
14!
#2210000000000
0!
#2215000000000
1!
b0 8!
b0 3!
11!
00
14
04!
0/
13
#2220000000000
0!
#2225000000000
1!
b1 3!
#2230000000000
0!
#2235000000000
1!
b10 3!
#2240000000000
0!
#2245000000000
1!
b11 3!
#2250000000000
0!
#2255000000000
1!
b100 3!
#2260000000000
0!
#2265000000000
1!
b101 3!
#2270000000000
0!
#2275000000000
1!
b110 3!
#2280000000000
0!
#2285000000000
1!
b111 3!
#2290000000000
0!
#2295000000000
1!
b1000 3!
#2300000000000
0!
#2305000000000
1!
b1001 3!
#2310000000000
0!
#2315000000000
1!
b1010 3!
#2320000000000
0!
#2325000000000
1!
b1011 3!
#2330000000000
0!
#2335000000000
1!
b1100 3!
#2340000000000
0!
#2345000000000
1!
b1101 3!
15!
#2350000000000
0!
#2355000000000
1!
b0 3!
sDONE/2 2!
01!
05!
04
03
#2360000000000
0!
#2365000000000
1!
sIDLE/0 2!
1F
06!
#2370000000000
0!
#2375000000000
1!
b0 9!
1G
0F
1.!
1Y
b10000 $
b10000 #
b10000 H
1(
1'
1J
1Z
1/!
1\
10!
#2380000000000
0!
#2385000000000
1!
1[
b1 ]
b1 I
b1 &
b1 %
0(
0'
0J
0Z
0/!
0\
00!
