test_output.vcd
$comment Generated by Amaranth $end
$date 2025-07-25 11:53:37.385756 $end
$timescale 1 fs $end
$scope module bench $end
$scope module top $end
$var wire 1 ! clk $end
$var wire 1 " rst $end
$var wire 4 # count $end
$var wire 1 $ a $end
$upscope $end
$upscope $end
$enddefinitions $end
#0
$dumpvars
0!
0"
b0 #
0$
$end
#500000000
1!
b1 #
#1000000000
0!
#1500000000
1!
b10 #
#2000000000
0!
#2500000000
1!
b11 #
#3000000000
0!
#3500000000
1!
b100 #
#4000000000
0!
#4500000000
1!
b101 #
#5000000000
0!
#5500000000
1!
b110 #
#6000000000
0!
#6500000000
1!
b111 #
#7000000000
0!
#7500000000
1!
b1000 #
#8000000000
0!
#8500000000
1!
1$
b1001 #
#9000000000
0!
#9500000000
1!
b1010 #
#10000000000
0!
#10500000000
1!
b1011 #
